 1 1 0.500000000 1 0 0 1 1 1 0 0 0.041871921 0.681818182 0.833333333 0.108333333 0.294117647 1 0 0 1 0 0 0.500000000 0 1 1 1 1 1 0 0 0 0.333333333 0 0 0.250000000 0.800000000 0.400000000 0 0.142857143 0 0 0.166666667 1 1 0.255319149 1 0
 0 0 0 1 0 1 0 1 0 1 0 0.130541872 0.022727273 0 0.177777778 0 0 1 0 1 0 0 0 0 0 0 0 0 0 0 0 0 0.333333333 0 0 0.250000000 0 0 0 0.142857143 0 0 0.500000000 1 0 0.170212766 1 0
 0 0 0 1 1 0 0 1 1 0 0 0.150246305 0.007575758 0 0.205555556 0 1 0 0 1 0 0 0 0 0 0 0 0 0 0 1 0.500000000 0 0 0.666666667 0 0 0.400000000 0 0.285714286 0 0 0.166666667 0 0 0.595744681 1 0
 0 0 0 1 1 0 0 1 0 0 1 0.088669951 0.003787879 0 0.033333333 0 1 0 0 1 0 0 0 0.250000000 0 0 0 0 0 0 0 0 0 0 0 0 0 0 0 0.142857143 0 0 0.333333333 1 0 0.191489362 1 0
 0 0 0 1 0 0 1 1 1 0 0 0.204433498 0 0.833333333 0.133333333 1 0 1 0 1 0 0 0.500000000 0.250000000 1 1 1 1 1 0.250000000 0.500000000 0.250000000 0 0 0 0 0 0 0 0.142857143 0 0 0.333333333 1 1 0.489361702 1 0
 0 0 0 1 1 0 0 1 1 0 0 0.293103448 0 0 0.333333333 0 1 0 0 1 0 0 0 0 0 0 0 0 0 0 0 0 0 0 0 0 0.200000000 0 0 0 0 0 0.166666667 1 0 0.638297872 1 0
 0 0 0 1 1 0 0 1 0 0 1 0.115763547 0 0 0.366666667 0 1 0 0 1 0 0 0 0 0 0 0 0 0 0 0 0 0 0 0 0 0 0 0 0 0 0 0.166666667 1 0 0.489361702 1 0
 0 0 0 1 0 1 0 0 1 1 0 0.041871921 0.045454545 0 0.200000000 0 1 0 0 1 0 0 0 0 0 0 0 0 0 0 1 0.750000000 0 0 1 0 0 1 0 0.714285714 0 0 0.166666667 1 0 0.148936170 1 0
 0 0 0 1 0 1 0 1 0 1 0 0.529556650 0 0 0.008333333 0 1 0 0 0 1 0 0 0 0 0 0 0 0 0 0 0.250000000 0.333333333 0 0 0.250000000 0 0 0 0.142857143 0 0 0.333333333 0 0 0.191489362 1 0
 0 0.512146753 0.500000000 1 0 0 1 1 1 0 0 0.174876847 0 0.777777778 0.033333333 0.117647059 1 0 0 1 0 0 0.500000000 0.500000000 1 1 1 1 1 0 0 0 0 0 0 0 0 0 0 0 0 0 0.166666667 1 1 0.255319149 1 0
 0 0 0 1 1 0 0 1 0 1 0 0.027093596 0.090909091 0 0.016666667 0 1 0 0 1 0 0 0 0 0 0 0 0 0 1 1 1 1 1 1 1 1 1 1 1 1 1 0.500000000 1 0 0.234042553 1 0
 0 0 0 1 0 1 0 1 0 1 0 0 0.863636364 0 0.102777778 0 1 0 0 1 0 0 0 0 0 0 0 0 0 0 0 0 0 0 0 0 0 0 0 0 0 0 0.333333333 1 0 0.127659574 1 0
 0 0 0 1 0 0 1 1 0 0 1 0.564039409 0 0.500000000 0.211111111 1 0 1 0 1 0 0 0.500000000 0 1 1 1 1 1 0 0 0 0 0 0 0 0 0 0 0 0 0 0.166666667 1 1 0.765957447 1 0
 0 0 0 1 0 1 0 0 1 1 0 0.559113300 0 0 0.016666667 0 1 0 0 1 0 0 0 0 0 0 0 0 0 0 0 0 0 0.333333333 0.333333333 0 0.200000000 0.200000000 0 0.285714286 0 0 0.500000000 1 0 0 1 0
 0 0 0 1 1 0 0 1 0 0 1 0.056650246 0.022727273 0 0.100000000 0 1 0 0 1 0 0 0 0 0 0 0 0 0 0 0 0 0 0 0 0 0 0 0 0 0 0 0.833333333 1 0 0.212765957 1 0
 0 0 0 1 1 0 0 1 1 0 0 0.322660099 0 0 0.533333333 0 0 1 0 1 0 0 0 0.750000000 0 0 0 0 0 0 0 0.500000000 0 0 0.666666667 0 0 0.800000000 0 0.285714286 0 0 0.166666667 1 0 0.510638298 1 0
 0 0 0 1 1 0 0 1 0 0 1 0.470443350 0 0 0.366666667 0 0 1 0 1 0 0 0 0 0 0 0 0 0 0 0 0 0 0 0 0 0 0 0 0 0 0 0.333333333 1 0 0.808510638 1 0
 0 0 0 1 1 0 0 1 1 0 0 0.022167488 0.022727273 0 0.033333333 0 0 1 0 1 0 0 0 0.250000000 0 0 0 0 0 0 0 0 0 0 0 0 0 0 0 0 0 0 0.166666667 1 0 0.361702128 1 0
 0 0 0 1 0 0 1 1 1 0 0 0.056650246 0.136363636 0.833333333 0.600000000 0.470588235 1 0 0 1 0 0 0.500000000 0.500000000 1 1 1 1 1 0 0 0 0 0 0 0 0 0.200000000 0 0 0 0 0.333333333 1 1 0.595744681 1 0
 0 0 0 1 1 0 0 1 0 1 0 0.416256158 0 0.833333333 0.144444444 1 1 0 0 1 0 0 0 0 1 1 1 1 1 0 0.500000000 0.250000000 0.333333333 0 0 0.250000000 0 0 0 0.142857143 0 0 0.166666667 1 1 0.382978723 1 0
 0 0 0.500000000 1 1 0 0 1 1 0 0 0.529556650 0 0 0.233333333 0 0 1 0 1 0 0 0 0.750000000 0 0 0 0 0 0 0 0 0.333333333 0 0 0.250000000 0 0 0 0.142857143 0 0 0.333333333 1 0 0.531914894 1 0
 1 0.318790283 0.500000000 1 0 0 1 1 1 0 0 0.209359606 0.007575758 0 0.402777778 0 1 0 0 1 0 0 0 0.500000000 0 0 0 0 0 0.250000000 1 0.750000000 0 0 1 0 0.200000000 0.600000000 0 0.428571429 0 0 0.833333333 1 0 0.319148936 1 0
 0 0 0 1 0 1 0 1 0 0 1 0.500000000 0 0 0.400000000 0 0 1 0 0 1 0 0 0 0 0 0 0 0 0 0 0 0 0 0 0 0 0 0 0 0 0 0.166666667 1 0 0.723404255 1 0
 0 0 0 1 1 0 0 0 1 1 0 0.647783251 0 0.833333333 0.016666667 0.352941176 1 0 0 1 0 0 0 0 1 1 1 1 1 0 0.500000000 0.250000000 0 0 0.333333333 0 0 0.200000000 0 0.142857143 0 0 0.333333333 1 1 0.063829787 1 0
 0 0 0 1 1 0 0 1 1 0 0 0.263546798 0 0 0.266666667 0 1 0 0 1 0 0 0 0.250000000 0 0 0 0 0 0 0 0 0 0 0 0 0 0 0 0 0 0 0.166666667 1 0 0.489361702 1 0
 0 0 0 1 1 0 0 1 0 0 1 0.603448276 0.022727273 0 0.183333333 0 0 1 0 1 0 0 0 0.250000000 0 0 0 0 0 0 0 0 0.333333333 0 0 0.500000000 0.400000000 0 0 0.142857143 0 0 0.666666667 1 0 0.489361702 1 0
 0 0 0 1 1 0 0 1 0 0 1 0.096059113 0.015151515 0 0.002777778 0 1 0 0 1 0 0 0 0.500000000 0 0 0 0 0 0 0 0 0 0 0 0.250000000 0 0.400000000 0 0 0 0 0.166666667 1 0 0.425531915 1 0
 1 1 0.500000000 1 1 0 0 1 1 0 0 0.174876847 0 0 0.333333333 0 1 0 0 1 0 0 0 0 0 0 0 0 0 0 0 0 0 0 0 0 0 0 0 0 0 0 0.166666667 1 0 0.468085106 1 0
 0 0 0 1 1 0 0 1 1 0 0 0.837438424 0 0 0.369444444 0 1 0 0 1 0 0 0 0.250000000 0 0 0 0 0 0 0 0.250000000 0 0.333333333 0.333333333 0.250000000 0.200000000 0.200000000 0 0.285714286 0 0 0.500000000 1 0 0.553191489 1 0
 0 0 0 1 1 0 0 1 1 0 0 0.044334975 0.056818182 0 0.069444444 0 0 1 0 1 0 0 0 0.500000000 0 0 0 0 0 0 0 0.250000000 0 0 1 0.250000000 0 0.800000000 0 0.571428571 0 0 0.500000000 1 0 0.340425532 1 0
 0 0 0 1 0 0 1 1 0 0 1 0.088669951 0.003787879 0 0.416666667 0 0 1 0 1 0 0 0 0 0 0 0 0 0 0 0 0 0 0 0 0 0 0 0 0 0 0 0.166666667 1 0 0.936170213 1 0
 0 0 0 1 0 0 1 1 1 0 0 0.366995074 0 0.611111111 0.833333333 0 1 0 0 1 0 0 0.500000000 0.500000000 0 0 1 0 0 0 0 0 0 0 0 0 0 0 0 0 0 0 1 1 1 0.617021277 1 0
 0 0 0 1 0 0 1 1 0 1 0 0.115763547 0.090909091 0.388888889 0.200000000 0 1 0 0 1 0 0 0.500000000 0.500000000 1 1 1 1 1 0 1 0.500000000 0 0.666666667 0 0 0.400000000 0 0 0.285714286 0 0 0.333333333 1 1 0.446808511 1 0
 0 0.175012395 0.500000000 1 0 0 1 1 1 0 0 0.470443350 0 0.555555556 0.333333333 0.941176471 1 0 0 1 0 0 1 0.500000000 1 1 1 1 1 0 0 0.250000000 0 0 0.333333333 0 0 0.200000000 0 0.142857143 0 0 0.166666667 1 1 0.361702128 1 0
 0 0 0 1 0 1 0 0 1 1 0 0.411330049 0 0 0.083333333 0 1 0 0 1 0 0 0 0 0 0 0 0 0 0 0 0 0 0 0 0 0 0 0 0 0 0 0.333333333 1 0 0.191489362 1 0
 0 0 0 1 1 0 0 1 1 0 0 0.012315271 0.136363636 0.833333333 0.083333333 0.588235294 1 0 0 1 0 0 0.500000000 0 1 1 1 1 1 0 0 0 0 0 0 0 0 0 0 0.142857143 0 0 0.333333333 1 1 0.148936170 1 0
 0 0 0 1 0 1 0 1 0 1 0 0.088669951 0 0 0.066666667 0 1 0 0 1 0 0 0 0 0 0 0 0 0 0 0 0 0 0.333333333 0.333333333 0 0.200000000 0.200000000 0 0.428571429 0 0 0.333333333 1 0 0.212765957 1 0
 0 0 0.500000000 1 0 0 1 1 0 1 0 0.027093596 0.545454545 0.833333333 0.066666667 0 1 0 0 1 0 0 1 0.250000000 1 1 1 1 1 0 0 0 0 0 0 0 0 0 0 0.142857143 0 0 0.166666667 1 1 0.531914894 1 0
 0 0 0 1 1 0 0 1 0 1 0 0.012315271 0.636363636 0 0.016666667 0 1 0 0 1 0 0 0 0 0 0 0 0 0 0 0 0 0 0 0 0 0 0 0 0 0 0 0.166666667 1 0 0.829787234 1 0
 0 0 0 1 1 0 0 1 1 0 0 0.086206897 0 0 0.200000000 0 1 0 0 1 0 0 0 0.750000000 0 0 0 0 0 0 0 0.250000000 0.333333333 0.333333333 0 0.250000000 0.200000000 0.800000000 0 0.285714286 0 0 0.166666667 1 0 0.276595745 1 0
 0 0 0 1 1 0 0 1 1 0 0 0.204433498 0 0 0.433333333 0 1 0 0 1 0 0 0 0.250000000 0 0 0 0 0 0 0 0 0 0 0 0 0 0 0 0 0 0 0.333333333 1 0 0.382978723 1 0
 0 0 0 1 1 0 0 1 0 1 0 0.027093596 0.136363636 0 0.008333333 0 0 1 0 0 1 0 0 0.750000000 0 0 0 0 0 0 0 0 0 0 0 0 0 0.200000000 0 0 0 0 1 1 0 0.553191489 1 0
 0 0 0.500000000 1 1 0 0 1 0 0 1 0 0.181818182 0 0.058333333 0 1 0 0 1 0 0 0 0 0 0 0 0 0 0 0 0 0 0.666666667 0.666666667 0 0.400000000 0.400000000 0 0.571428571 0 0 0.833333333 1 0 0.212765957 1 0
 0 0 0 1 0 1 0 1 1 0 0 0.054187192 0.140151515 0 0.166666667 0 1 0 0 1 0 0 0 0 0 0 0 0 0 0 0 0 0 0 0 0 0 0 0 0 0 0 0.666666667 1 0 0.319148936 1 0
 0 0 0.500000000 1 0 0 1 1 1 0 0 0.022167488 0.272727273 0.277777778 0.366666667 0 0 1 0 0 1 0 0 0.500000000 1 1 1 1 1 0 1 0.750000000 0.333333333 0 0.666666667 0.250000000 0 0.800000000 0 0.714285714 0 0 0.166666667 1 1 0.744680851 1 0
 0 0 0 1 1 0 0 1 1 0 0 0 0.227272727 0 0.100000000 0 1 0 0 1 0 0 0 0 0 0 0 0 0 0 0 0.500000000 0 0 0.666666667 0 0 0.400000000 0 0.285714286 0 0 0.166666667 1 0 1 1 0
 0 0 0 1 1 0 0 1 1 0 0 0.145320197 0 0 0.011111111 0 1 0 0 0 1 0 0 0 0 0 0 0 0 0 0 0 0 0 0 0 0 0 0 0.142857143 0 0 0.333333333 1 0 0.510638298 1 0
 0 0 0 1 0 1 0 1 0 1 0 0.012315271 0.954545455 0 0.016666667 0 1 0 0 1 0 0 0 0 0 0 0 0 0 0 0 0 0 0 0 0 0.200000000 0 0 0 0 0 0.333333333 1 0 0.063829787 1 0
 0 0 0 1 1 0 0 1 0 0 1 0.029556650 0.113636364 0 0.116666667 0 1 0 0 1 0 0 0 0.500000000 0 0 0 0 0 0.500000000 1 1 1 1 1 0.750000000 1 1 0 1 0 0 0.500000000 1 0 0.404255319 1 0
 0 0 0 1 0 1 0 1 1 0 0 0.027093596 0.727272727 0 0.030555556 0 1 0 0 1 0 0 0 0 0 0 0 0 0 0 0 0 0 0 0 0 0 0 0 0.285714286 0 0 0.500000000 1 0 0.021276596 1 0
 0 0.891918691 0.500000000 1 0 0 1 1 0 1 0 0.100985222 0.022727273 0 0.133333333 0 0 1 0 1 0 0 0 0.250000000 0 0 0 0 0 0 0.500000000 0.500000000 0 0 0.666666667 0.250000000 0 0.400000000 0 0.285714286 0 0 0.666666667 1 0 0.617021277 1 0
 0 0 0 1 0 0 1 1 1 0 0 0.157635468 0 0.833333333 0.025000000 1 1 0 0 1 0 0 0.500000000 0.500000000 0 0 1 0 0 0 0 0.250000000 0 0.666666667 0 0 0.400000000 0 0 0.285714286 0 0 0.166666667 1 1 0.425531915 1 0
 0 0 0.500000000 1 1 0 0 1 1 0 0 0.322660099 0 0 0.069444444 0 0 1 0 1 0 0 0 0 0 0 0 0 0 0 0 0 0 0 0 0 0 0.600000000 0 0 0 0 0.166666667 1 0 0.531914894 1 0
 0 0 0 1 0 0 1 1 1 0 0 0.071428571 0.090909091 0 0.266666667 0 1 0 0 1 0 0 0 0 0 0 0 0 0 0 0 0 0 0 0.666666667 0 0 0.400000000 0 0.285714286 0 0 0.166666667 1 0 0.297872340 1 0
 0 0 0 1 0 1 0 1 1 0 0 0.064039409 0.640151515 0 0.100000000 0 1 0 0 1 0 0 0 0 0 0 0 0 0 0 0 0 0 0 0 0 0 0 0 0 0 0 0.500000000 1 0 0.574468085 1 0
 0 0 0 1 1 0 0 1 0 1 0 0.061576355 0.181818182 0.833333333 0.166666667 0.117647059 1 0 0 1 0 0 0 0 1 1 1 1 1 0 0.500000000 0.250000000 0 0 0 0 0 0 0 0.142857143 0 0 0.333333333 1 1 0.234042553 1 0
 0 0 0 1 0 1 0 1 0 1 0 0.204433498 0 0 0.166666667 0 1 0 0 1 0 0 0 0 0 0 0 0 0 0.250000000 0.500000000 1 0 0.333333333 1 0 0.200000000 0.800000000 0 0.714285714 0 0 0.166666667 1 0 0.340425532 1 0
 0 0 0 1 1 0 0 1 0 0 1 0.012315271 0.287878788 0 0.011111111 0 1 0 0 1 0 0 0 0.250000000 0 0 0 0 0 0 0 0 0 0 0 0.250000000 0 0 0 0.142857143 0 0 0.500000000 1 0 0.680851064 1 0
 0 0 0 1 0 0 1 1 1 0 0 0.056650246 0.034090909 0 0.366666667 0 0 1 0 0 1 0 0 0 0 0 0 0 0 0 0.500000000 0.500000000 0.333333333 1 1 0.500000000 0.600000000 1 0 1 0 0 0.166666667 1 0 0.234042553 1 0
 0 0 0 1 1 0 0 1 1 0 0 0.233990148 0 0 0.066666667 0 0 1 0 1 0 0 0 0.500000000 0 0 0 0 0 0.250000000 0.500000000 0.250000000 0.333333333 0 0 0.250000000 0 0 0 0.142857143 0 0 0.166666667 1 0 0.382978723 1 0
 0 0 0 1 1 0 0 1 1 0 0 0.066502463 0.227272727 0 1 0 1 0 0 1 0 0 0 0 0 0 0 0 0 0 1 0.750000000 0.333333333 0.666666667 0.666666667 0.500000000 0.400000000 0.800000000 0 0.714285714 0 0 0.166666667 1 0 0.617021277 1 0
 0 0 0 1 1 0 0 0 1 1 0 0.211822660 0.011363636 0 0.272222222 0 0 1 0 1 0 0 0 0 0 0 0 0 0 0 0 0.500000000 0 0 0.666666667 0 0 0.400000000 0 0.285714286 0 0 0.500000000 1 0 0.127659574 1 0
 0 0 0 1 1 0 0 1 1 0 0 0.145320197 0 0 0.083333333 0 1 0 0 1 0 0 0 0.500000000 0 0 0 0 0 0 0 0 0 0 0 0 0.200000000 0 0 0.142857143 0 0 0.500000000 1 0 0.297872340 1 0
 0 0 0 1 1 0 0 1 0 1 0 0.093596059 0.204545455 0.055555556 0.250000000 0 1 0 0 1 0 0 0.500000000 0 1 1 1 1 1 0 0 0.500000000 0 0 0.666666667 0 0 0.400000000 0 0.285714286 0 0 0.333333333 1 1 0.191489362 1 0
 0 0 0 1 1 0 0 1 1 0 0 0.029556650 0.409090909 0.833333333 0.500000000 0 1 0 0 1 0 0 0.500000000 0 1 1 1 0 0 0 0 0.500000000 0 0 0.666666667 0 0 0.400000000 0 0.285714286 0 0 0.500000000 1 1 0.276595745 1 0
 0 0.021814576 0.500000000 1 0 1 0 1 0 1 0 0.174876847 0 0 0.100000000 0 1 0 0 1 0 0 0 0 0 0 0 0 0 0 0 0 0 0 0 0 0 0 0 0 0 0 1 1 0 0.127659574 1 0
 0 0 0 1 1 0 0 1 1 0 0 0.500000000 0 0 0.866666667 0 1 0 0 1 0 0 0 0.250000000 0 0 0 0 0 0 0 0 0 0.333333333 0 0.250000000 0.800000000 0.400000000 0 0.142857143 0 0 0.166666667 1 0 0.595744681 1 0
 0 0 0 1 0 0 1 1 0 1 0 0.041871921 0.109848485 0 0.016666667 0 1 0 0 1 0 0 0 0.500000000 0 0 0 0 0 0 0 0.250000000 0 0 0.333333333 0 0 1 0 0.142857143 0 0 0.500000000 1 0 0.297872340 1 0
 0 0 0 1 0 1 0 1 0 1 0 0.007389163 0.045454545 0 0.011111111 0 1 0 0 1 0 0 0 0 0 0 0 0 0 0 0 0 0 0 0 0 0.200000000 0 0 0.142857143 0 0 0.500000000 0 0 0.127659574 1 0
 0 0 0 1 0 1 0 0 1 1 0 0.189655172 0 0 0.002777778 0 1 0 0 1 0 0 0 0.250000000 0 0 0 0 0 0 1 0.750000000 0.666666667 0 0.666666667 0.500000000 0.600000000 0.400000000 0 0.571428571 0 0 0.166666667 1 0 0.148936170 1 0
 0 0 0 1 0 1 0 0 1 1 0 0.293103448 0 0 0.200000000 0 1 0 0 1 0 0 0 0 0 0 0 0 0 0 0.500000000 0.500000000 0 0.333333333 0.333333333 0 0.400000000 0.200000000 0 0.285714286 0 0 0.500000000 1 0 0.063829787 1 0
 0 0 0 1 1 0 0 1 0 0 1 0.411330049 0 0 0.500000000 0 0 1 0 0 1 0 0 0.500000000 0 0 0 0 0 0.250000000 1 0.500000000 0 0 0.666666667 0 0 0.400000000 0 0.285714286 0 0 0.166666667 1 0 0.595744681 1 0
 0 0.242935052 0.500000000 1 0 0 1 1 0 0 1 0.004926108 0.363636364 0.833333333 0.050000000 0.823529412 1 0 0 1 0 0 0 0.500000000 1 1 1 1 1 0 0 0 0 0 0 0 0 0 0 0 0 0 0.333333333 1 1 0.361702128 1 0
 0 0 0 1 0 1 0 0 1 1 0 0.736453202 0 0 0.216666667 0 1 0 0 1 0 0 0 0 0 0 0 0 0 0 1 1 0 0 1 0.250000000 0 0.800000000 0 0.571428571 0 0 0.333333333 1 0 0.170212766 1 0
 0 0 0 1 0 1 0 1 0 1 0 0.007389163 0.227272727 0 0.011111111 0 1 0 0 1 0 0 0 0 0 0 0 0 0 0.250000000 1 0.750000000 0 0 1 0 0 0.600000000 0 0.428571429 0 0 0.166666667 1 0 0.489361702 1 0
 0 0 0 1 0 0 1 1 1 0 0 0.029556650 1 0 0.216666667 0 1 0 0 1 0 0 0 0 0 0 0 0 0 0 0 0.250000000 0.333333333 0 0 0.250000000 0 0 0 0.142857143 0 0 0.333333333 1 0 0.276595745 1 0
 0 0 0 1 0 0 1 1 0 1 0 0.056650246 0.045454545 0 0.016666667 0 1 0 0 1 0 0 0 0.250000000 0 0 0 0 0 0 1 0.750000000 0 0 1 0 0 0.600000000 0 0.428571429 0 0 0.500000000 1 0 0.127659574 1 0
 0 0 0 1 0 0 1 1 1 0 0 0.004926108 0.272727273 0 0.022222222 0 1 0 0 1 0 0 0 0.250000000 0 0 0 0 0 0 0 0 0 0 1 0.250000000 0 1 0 0.714285714 0 0 0.500000000 1 0 0.297872340 1 0
 0 1 0.500000000 1 1 0 0 1 1 0 0 0.204433498 0 0 0.600000000 0 1 0 0 1 0 0 0 0.750000000 0 0 0 0 0 0 0 0 0 0.333333333 0.666666667 0 0.400000000 0.400000000 0 0.428571429 0 0 0.333333333 1 0 0.553191489 1 0
 0 0 0 1 0 1 0 1 0 1 0 0.086206897 0 0 0.008333333 0 1 0 0 1 0 0 0 0.250000000 0 0 0 0 0 0 0 0.250000000 0 0 0.333333333 0 0 0.200000000 0 0.142857143 0 0 0.333333333 1 0 0.148936170 1 0
 0 0 0 1 0 0 1 1 0 1 0 0.086206897 0 0 0.005555556 0 1 0 0 1 0 0 0 0 0 0 0 0 0 0 0 0 0 0 0 0 0 0 0 0 0 0 0.500000000 1 0 0.340425532 1 0
 0 0 0 1 0 0 1 1 1 0 0 0.115763547 0.136363636 0.055555556 0.116666667 0.411764706 1 0 0 1 0 0 0.500000000 0.250000000 1 1 1 1 1 1 1 1 1 1 1 1 1 1 1 1 1 1 0.333333333 1 1 0.191489362 1 0
 0 0 0 1 1 0 0 1 1 0 0 0.145320197 0 0 0.666666667 0 1 0 0 1 0 0 0 0.500000000 0 0 0 0 0 0 0 0 0 0 0 0 0 0 0 0 0 0 0.333333333 0 0 0.404255319 1 0
 0 0 0 1 0 0 1 1 0 1 0 0.044334975 0.045454545 0 0.008333333 0 0 1 0 1 0 0 0 0 0 0 0 0 0 0.250000000 0.500000000 0.250000000 0 0.333333333 0 0.250000000 0.400000000 0 0 0.142857143 0 0 0.166666667 1 0 0.148936170 1 0
 0 0 0 1 1 0 0 1 1 0 0 0.160098522 0 0 0.033333333 0 1 0 0 1 0 0 0 1 0 0 0 0 0 0.250000000 0.500000000 0.250000000 0.333333333 0 0 0.250000000 0 0 0 0.142857143 0 0 0.166666667 1 0 0.595744681 1 0
 0 0 0.500000000 1 1 0 0 1 1 0 0 0.071428571 0.227272727 0 0.300000000 0 1 0 0 1 0 0 0 0.250000000 0 0 0 0 0 0 1 0.750000000 0 0 1 0 0 0.800000000 0 0.428571429 0 0 0.500000000 1 0 0.553191489 1 0
 0 0 0 1 0 0 1 1 1 0 0 0.012315271 0.034090909 0 0.300000000 0 1 0 0 0 1 0 0 0.500000000 0 0 0 0 0 0 0 0.500000000 0 0.666666667 0.333333333 0 1 0.200000000 0 0.428571429 0 0 0.833333333 1 0 0.404255319 1 0
 0 0 0 1 1 0 0 1 0 1 0 0.007389163 0.094696970 0 0.011111111 0 1 0 0 1 0 0 0 0 0 0 0 0 0 0 0 0 0 0 0 0 0 0 0 0 0 0 1 1 0 0.531914894 1 0
 0 0 0 1 0 1 0 1 0 1 0 0.012315271 0.458333333 0 0.102777778 0 0 1 0 1 0 0 0 0 0 0 0 0 0 0 0 0 0 0.333333333 0 0 0.200000000 0 0 0.285714286 0 0 0.166666667 1 0 0.085106383 1 0
 0 1 1 1 1 0 0 1 1 0 0 0.130541872 0.022727273 0 0.369444444 0 1 0 0 1 0 0 0 0.750000000 0 0 0 0 0 0.250000000 0.500000000 0.500000000 0.666666667 0 0.666666667 0.500000000 0.200000000 0.400000000 0 0.571428571 0 0 0.333333333 1 0 0.297872340 1 0
 0 0 0 1 1 0 0 1 1 0 0 0.017241379 0.090909091 0 0.038888889 0 1 0 0 1 0 0 0 0.250000000 0 0 0 0 0 0 0 0.250000000 0.333333333 0.333333333 0.333333333 0.250000000 0.400000000 0.400000000 0 0.428571429 0 0 0.166666667 1 0 0.191489362 1 0
 0 0 0.500000000 1 0 0 1 1 0 1 0 0.115763547 0 0 0.050000000 0 1 0 0 1 0 0 0 0 0 0 0 0 0 0 0 0 0 0 0 0 0 0.400000000 0 0 0 0 0.500000000 1 0 0.638297872 1 0
 0 0 0 1 0 1 0 1 0 0 1 0.041871921 0.022727273 0 0.116666667 0 1 0 0 1 0 0 0 0 0 0 0 0 0 0 0 0.250000000 0.333333333 0 0.333333333 0.250000000 0 0.600000000 0 0.285714286 0 0 0.500000000 1 0 0.170212766 1 0
 0 0 0 1 0 0 1 1 0 0 1 0.263546798 0 0 0.091666667 0 1 0 0 1 0 0 0 0 0 0 0 0 0 0.250000000 1 0.750000000 1 0 0.666666667 1 0.200000000 0.400000000 0 1 0 0 0.166666667 1 0 0.319148936 1 0
 0 0 0 1 0 1 0 1 1 0 0 0.135467980 0.030303030 0 0.222222222 0 0 1 0 1 0 0 0 0 0 0 0 0 0 0 0 0.250000000 0 0 0.333333333 0.250000000 0 0.200000000 0 0.142857143 0 0 0.166666667 1 0 0.170212766 1 0
 0 0 0.500000000 1 0 0 1 1 1 0 0 0.204433498 0 0 0.025000000 0 1 0 0 0 1 0 0 0 0 0 0 0 0 0 0 0.250000000 0 0 0.333333333 0 0 0.200000000 0 0.142857143 0 0 0.333333333 1 0 0.744680851 1 0
 0 0 0 1 1 0 0 1 1 0 0 0.115763547 0 0 0.172222222 0 1 0 0 1 0 0 0 0 0 0 0 0 0 0 0 0 0 0 0 0 0 0.600000000 0 0.142857143 0 0 0.166666667 1 0 0.425531915 1 0
 0 0 0 1 0 0 1 1 0 1 0 0.086206897 0 0 0.216666667 0 0 1 0 0 1 0 0 0 0 0 0 0 0 0 0 0 0.333333333 0 0 0.250000000 0 0 0 0.142857143 0 0 0.333333333 1 0 0.255319149 1 0
 0 0 0 1 0 1 0 1 1 0 0 0.115763547 0 0 0.233333333 0 1 0 0 1 0 0 0 0.250000000 0 0 0 0 0 0.250000000 0.500000000 0.750000000 0.333333333 0 1 0.250000000 0 0.600000000 0 0.571428571 0 0 1 1 0 0.382978723 1 0
 0 0 0 1 1 0 0 1 1 0 0 0.128078818 0.018939394 0 0.383333333 0 1 0 0 1 0 0 0 0.500000000 0 0 0 0 0 0 0 0.500000000 0 0.333333333 0.666666667 0 0.200000000 0.400000000 0 0.428571429 0 0 0.333333333 1 0 0.340425532 1 0
 0 0 0 1 1 0 0 1 1 0 0 0.293103448 0 0 0.300000000 0 1 0 0 1 0 0 0 0.500000000 0 0 0 0 0 0 0 0 0 0 0 0 0 0 0 0 0 0 0.333333333 1 0 0.276595745 1 0
 0 0 0 1 0 0 1 1 1 0 0 0.130541872 0.545454545 0.777777778 0.233333333 0.470588235 1 0 0 1 0 0 1 0.500000000 1 1 1 1 1 0 0 0 0 0 0 0.750000000 0 0 0 0 0 0 0.333333333 1 1 0.531914894 1 0
 0 0 0 1 0 1 0 1 1 0 0 0.115763547 0 0 0.300000000 0 1 0 0 1 0 0 0 0 0 0 0 0 0 0 0 0 0 0 0 0.250000000 0 0 0 0 0 0 0.500000000 1 0 0.212765957 1 0
 0 0 0 1 0 0 1 1 0 1 0 0.440886700 0 0 0.633333333 0 1 0 0 0 1 0 0 0 0 0 0 0 0 0 0 0 0 0 0 0 0 0 0 0 0 0 0.333333333 1 0 0.659574468 1 0
 0 0 0 1 0 1 0 1 0 1 0 0.263546798 0 0 0.050000000 0 1 0 0 1 0 0 0 0 0 0 0 0 0 0.750000000 1 0.750000000 0.666666667 0 0.333333333 0.500000000 0 0.600000000 0 0.428571429 0 0 0.500000000 1 0 0.191489362 1 0
 0 0 0 1 1 0 0 1 1 0 0 0.162561576 0.026515152 0 0.169444444 0 0 1 0 1 0 0 0 0 0 0 0 0 0 0 0 0 0 0 0 0 0 0 0 0 0 0 0.166666667 1 0 0.638297872 1 0
 0 0 0 1 0 0 1 1 0 1 0 0.012315271 0.022727273 0 0.008333333 0 1 0 0 1 0 0 0 0 0 0 0 0 0 0 0 0 0 0 0 0 0 0 0 0 0 0 0.166666667 1 0 0.127659574 1 0
 0 0 0 1 1 0 0 1 1 0 0 0.041871921 0.056818182 0 0.130555556 0 1 0 0 1 0 0 0 0 0 0 0 0 0 0 0 0 0 0 0 0 0 0.400000000 0 0 0 0 0.500000000 1 0 0.148936170 1 0
 0 0 0 1 0 0 1 1 0 1 0 0 0.409090909 0 0.050000000 0 1 0 0 1 0 0 0 0.250000000 0 0 0 0 0 0 0 0 0 0 0 0.250000000 0 0 0 0 0 0 0.333333333 1 0 0.382978723 1 0
 0 0 0 1 0 0 1 1 1 0 0 0.174876847 0 0 0.266666667 0 1 0 0 1 0 0 0 0.750000000 0 0 0 0 0 0 0 0.250000000 0.333333333 0 0 0.500000000 0 0 0 0.142857143 0 0 0.500000000 1 0 0.191489362 1 0
 0 0 0 1 1 0 0 1 1 0 0 0.041871921 0.136363636 0 0.500000000 0 0 1 0 1 0 0 0 0.250000000 0 0 0 0 0 0 0 0 0 0 0 0 0 0 0 0 0 0 0.500000000 1 0 0.510638298 1 0
 0 0 0 1 1 0 0 1 1 0 0 0.440886700 0 0.833333333 0.133333333 0.058823529 1 0 0 1 0 0 0.500000000 0 1 1 1 1 1 0 0.500000000 0.500000000 0 0 0.666666667 0 0 0.400000000 0 0.285714286 0 0 0.333333333 1 1 0.085106383 1 0
 0 0 0 1 1 0 0 1 0 0 1 0.110837438 0.045454545 0 0.166666667 0 1 0 0 1 0 0 0 0 0 0 0 0 0 0 0 0 0 0 0 0 0 0.200000000 0 0 0 0 0.833333333 0 0 0.361702128 1 0
 0 0 0 1 1 0 0 0 1 1 0 0.071428571 0.045454545 0 0.091666667 0 1 0 0 1 0 0 0 0.750000000 0 0 0 0 0 0 0 0 0 0 0 0 0 0 0 0 0 0 0.500000000 1 0 0.531914894 1 0
 0 0 0 1 1 0 0 1 0 1 0 0.014778325 0.363636364 0 0.019444444 0 0 1 0 1 0 0 0 0.500000000 0 0 0 0 0 0 0 0.750000000 0 0 1 0 0 0.600000000 0 0.428571429 0 0 0.166666667 1 0 0.404255319 1 0
 0 0 0 1 0 1 0 0 1 1 0 0.825123153 0 0 0.005555556 0 1 0 0 1 0 0 0 0 0 0 0 0 0 0 0 0 0 0 0 0 0 0 0 0 0 0 0.166666667 1 0 0.234042553 1 0
 0 0 0 1 0 0 1 1 1 0 0 0.293103448 0 0 0.166666667 0 0 1 0 1 0 0 0 0 0 0 0 0 0 0 0.500000000 0.500000000 0 0.333333333 0.333333333 0 0.200000000 0.200000000 0 0.285714286 0 0 0 1 0 0.595744681 1 0
 0 0 0 1 1 0 0 1 0 1 0 0.096059113 0.015151515 0 0.500000000 0 1 0 0 1 0 0 0 0.750000000 0 0 0 0 0 0 0 0 0 0 0 0 0 0 0 0 0 0 0.333333333 1 0 0.319148936 1 0
 0 0 0 1 1 0 0 1 0 0 1 0.145320197 0 0 0.333333333 0 1 0 0 1 0 0 0 0 0 0 0 0 0 0 0 0.750000000 0 0 1 0 0 0.600000000 0 0.428571429 0 0 0.166666667 1 0 0.765957447 1 0
 0 0 0 1 1 0 0 1 1 0 0 0.086206897 0 0 0.100000000 0 1 0 0 1 0 0 0 0.750000000 0 0 0 0 0 0 0 0 0 0 0.333333333 0 0 0.200000000 0 0.142857143 0 0 0.500000000 1 0 0.319148936 1 0
 0 0 0 1 1 0 0 1 0 1 0 0.088669951 0.003787879 0 0.033333333 0 1 0 0 1 0 0 0 0.500000000 0 0 0 0 0 0 0 0.500000000 0 0 0.666666667 0 0 0.400000000 0 0.285714286 0 0 0.166666667 1 0 0.531914894 1 0
 0 0 0 1 0 0 1 1 0 1 0 0.056650246 0.090909091 0 0.036111111 0 1 0 0 1 0 0 0 0 0 0 0 0 0 0 0.500000000 0.500000000 0 0.333333333 0.333333333 0 0.200000000 0.200000000 0 0.285714286 0 0 0.500000000 1 0 0.276595745 1 0
 0 0 0 1 0 0 1 1 0 1 0 0.007389163 0.068181818 0.833333333 0.091666667 1 1 0 0 1 0 0 0 0 1 1 1 1 1 0 0 0 0 0 0 0 0 0 0 0 0 0 1 1 1 0.702127660 1 0
 0 0 0 1 0 1 0 1 1 0 0 0.039408867 1 0 0.052777778 0 1 0 0 1 0 0 0 0 0 0 0 0 0 0 0 0 0 0 0 0 0 0 0 0 0 0 0.166666667 1 0 0.212765957 1 0
 0 0 0 1 0 0 1 0 1 1 0 0.046798030 0.409090909 0 0.038888889 0 1 0 0 1 0 0 0 0 0 0 0 0 0 0 0 0 0.333333333 0 0 0.750000000 0 0 0 0.142857143 0 0 0.166666667 1 0 0.148936170 1 0
 0 0 0 1 0 0 1 1 0 0 1 0.027093596 0.136363636 0.833333333 0.025000000 1 0 1 0 1 0 0 0.500000000 0 1 1 1 1 1 0 0 0 0 0 0.333333333 0.250000000 0 0.200000000 0 0.142857143 0 0 0.500000000 1 1 0.595744681 1 0
 0 0 0 1 1 0 0 1 1 0 0 0.009852217 0.041666667 0 0.025000000 0 1 0 0 1 0 0 0 0.250000000 0 0 0 0 0 0.250000000 1 0.500000000 0.333333333 0 1 0.250000000 0.200000000 1 0 1 0 0 0.500000000 1 0 0.340425532 1 0
 0 0 0 1 0 1 0 1 0 1 0 0 0.136363636 0 0.266666667 0 0 1 0 1 0 0 0 0 0 0 0 0 0 0.250000000 0.500000000 0.250000000 0 0 0 0 0 0 0 0.142857143 0 0 1 1 0 0.234042553 1 0
 0 0 0 1 1 0 0 0 1 1 0 0.854679803 0 0.833333333 0.433333333 0 1 0 0 1 0 0 0.500000000 0 1 1 1 1 1 0 0 0 0 0 0 0 0 0 0 0 0 0 0.166666667 1 1 0.212765957 1 0
 0 0 0 1 0 0 1 1 0 1 0 0.014778325 0.022727273 0 0.105555556 0 0 1 0 0 1 0 0 0 0 0 0 0 0 0.250000000 0.500000000 0.250000000 0 0 0 0 0.400000000 0 0 0.142857143 0 0 0.500000000 1 0 0.042553191 1 0
 0 0 0 1 0 0 1 1 1 0 0 0.056650246 0.022727273 0 0.066666667 0 1 0 0 1 0 0 0 0 0 0 0 0 0 0 0 0 0 0.333333333 0 0 0.200000000 0 0 0.285714286 0 0 0.500000000 1 0 0.404255319 1 0
 0 0 0 1 1 0 0 1 1 0 0 0.100985222 0.022727273 0 0.075000000 0 1 0 0 1 0 0 0 0.750000000 0 0 0 0 0 0 0.500000000 0.250000000 0 0 0.666666667 0 0 0.600000000 0 0.285714286 0 0 0.333333333 1 0 0.191489362 1 0
 0 0 0 1 0 0 1 1 1 0 0 0.004926108 0.181818182 0 0.008333333 0 1 0 0 1 0 0 0 0 0 0 0 0 0 0 0 0 0 0.666666667 0.333333333 0 0.800000000 0.200000000 0 0.428571429 0 0 0.500000000 1 0 0.255319149 1 0
 0 0 0 1 0 0 1 1 1 0 0 0.204433498 0 0 0.227777778 0 1 0 0 1 0 0 0 0.500000000 0 0 0 0 0 0.250000000 0.500000000 0.250000000 0.333333333 0 0 0.250000000 0 0 0 0.142857143 0 0 0.500000000 1 0 0.553191489 1 0
 0 0 1 1 0 0 1 1 1 0 0 0.098522167 0.030303030 0.166666667 0.052777778 0.941176471 1 0 0 1 0 0 0 0.500000000 0 0 0 1 0 0.250000000 0.500000000 0.250000000 0.333333333 0.333333333 0 0.750000000 0.400000000 0 0 0.285714286 0 0 0.500000000 1 1 0.106382979 1 0
 0 0 0 0 1 1 0 1 0 1 0 0.022167488 0.090909091 0 0.166666667 0 1 0 0 1 0 0 0 0 0 0 0 0 0 0 0 0.500000000 0 0 0.666666667 0.250000000 0 0.400000000 0 0.285714286 0 0 0.500000000 1 0 0.234042553 1 0
 0 0 0 1 1 0 0 1 0 1 0 0.440886700 0 0 0.013888889 0 1 0 0 1 0 0 0 0 0 0 0 0 0 0 0.500000000 0.250000000 0 0 0.333333333 0 0 0.200000000 0 0.142857143 0 0 0.500000000 1 0 0.212765957 1 0
 0 0 0 1 0 0 1 1 1 0 0 0.014778325 0.227272727 0.222222222 0.083333333 0 1 0 0 1 0 0 1 0 1 1 1 1 1 0 0 0 0 0 0 0 0 0 0 0 0 0 0.500000000 1 1 0.553191489 1 0
 0 0 0 1 1 0 0 1 0 1 0 0.086206897 0 0 0.016666667 0 1 0 0 1 0 0 0 0 0 0 0 0 0 0 0 0 0 0 0 0 0 0 0 0 0 0 0.500000000 1 0 0.255319149 1 0
 0 0 0 1 0 1 0 0 1 1 0 0.071428571 0.363636364 0 0.083333333 0 1 0 0 1 0 0 0 0 0 0 0 0 0 0 0.500000000 0.250000000 0 0.666666667 0.333333333 0 0.400000000 0.200000000 0 0.428571429 0 0 0.166666667 1 0 0.212765957 1 0
 0 0 0 1 1 0 0 1 1 0 0 0.056650246 0.090909091 0 0.016666667 0 1 0 0 1 0 0 0 0.500000000 0 0 0 0 0 0 0 0 0 0 0 0 0 0 0 0 0 0 0.166666667 1 0 0.319148936 1 0
 0 0 0 1 0 1 0 1 1 0 0 0 0.295454545 0 0.050000000 0 1 0 0 1 0 0 0 0 0 0 0 0 0 0 0 0.250000000 0 0 0.333333333 0.250000000 0 0.200000000 0 0.142857143 0 0 0.500000000 1 0 0.106382979 1 0
 0 0 0 1 1 0 0 1 0 0 1 0.027093596 0.136363636 0 0 0 1 0 0 1 0 0 0 0.500000000 0 0 0 0 0 0 0 0.750000000 0 0 0.666666667 0 0 0.800000000 0 0.428571429 0 0 0.166666667 1 0 0.276595745 1 0
 0 0 0 1 0 0 1 1 1 0 0 0.012315271 0.037878788 0 0.008333333 0 0 1 0 1 0 0 0 0 0 0 0 0 0 0 0.500000000 0.250000000 0.333333333 0 0 0.250000000 0.200000000 0.200000000 0 0.142857143 0 0 0.500000000 0 0 0.148936170 1 0
 0 0 0 0 1 1 0 1 1 0 0 0.413793103 0.003787879 0 0.050000000 0 1 0 0 1 0 0 0 0.250000000 0 0 0 0 0 0 0 0.250000000 0 0.666666667 0 0 0.400000000 0 0 0.285714286 0 0 0.333333333 1 0 0.531914894 1 0
 0 0 0 1 1 0 0 1 0 1 0 0.086206897 0 0 0.166666667 0 0 1 0 1 0 0 0 0.500000000 0 0 0 0 0 0.750000000 1 1 0.333333333 0 1 0.250000000 0 0.800000000 0 0.714285714 0 0 0.166666667 1 0 0.489361702 1 0
 0 0 0 1 1 0 0 1 0 1 0 0.056650246 0.113636364 0 0.266666667 0 1 0 0 1 0 0 0 0.250000000 0 0 0 0 0 0 0 0.750000000 0 0 1 0 0 1 0 0.714285714 0 0 0.166666667 1 0 0.446808511 1 0
 0 0 0 1 0 0 1 1 0 1 0 0 0.098484848 0.444444444 0.050000000 0.470588235 1 0 0 1 0 0 0.500000000 0 1 1 1 1 1 0 0 0 0 0.333333333 0 0 0.200000000 0 0 0.142857143 0 0 0.500000000 1 1 0.404255319 1 0
 0 0 0 1 0 1 0 1 0 0 1 0.174876847 0 0 0.100000000 0 1 0 0 1 0 0 0 0 0 0 0 0 0 0 0 0 0 0 0 0 0 0 0 0 0 0 0.166666667 1 0 0.489361702 1 0
 0 0 0 1 1 0 0 1 1 0 0 0.263546798 0 0 0.372222222 0 0 1 0 0 1 0 0 0.500000000 0 0 0 0 0 0 0 0 0 0 0 0 0 0 0 0.142857143 0 0 0.166666667 1 0 0.489361702 1 0
 0 0 0 1 1 0 0 1 0 1 0 0.029556650 0.068181818 0 0.122222222 0 1 0 0 1 0 0 0 0 0 0 0 0 0 0.500000000 1 0.500000000 1 0.333333333 0 1 0.800000000 0 0 0.714285714 0 0 0.166666667 1 0 0.148936170 1 0
 0 1 0.500000000 1 0 0 1 1 1 0 0 0.147783251 0 0.777777778 0.216666667 0 1 0 0 1 0 0 0.500000000 0.500000000 0 0 1 0 0 0 0 0 0 0 0 0 0 0 0 0 0 0 1 1 1 0.319148936 1 0
 0 0 0 1 1 0 0 1 0 1 0 0.004926108 0.060606061 0 0.008333333 0 1 0 0 1 0 0 0 0 0 0 0 0 0 0 0 0.500000000 0.333333333 0 0.666666667 0.250000000 0 0.400000000 0 0.571428571 0 0 0.333333333 1 0 0.255319149 1 0
 0 0 0.500000000 1 1 0 0 1 1 0 0 0.071428571 0.136363636 0 0.266666667 0 1 0 0 1 0 0 0 0 0 0 0 0 0 0 0 0 0.333333333 0 1 0.250000000 0 0.800000000 0 0.714285714 0 0 0.166666667 1 0 0.255319149 1 0
 0 0 0.500000000 1 1 0 0 1 1 0 0 0.071428571 0.068181818 0 0.011111111 0 0 1 0 0 1 0 0 0.500000000 0 0 0 0 0 0 0 0 0 0 0 0 0 0 0 0 0 0 0.833333333 1 0 0.361702128 1 0
 0 0 0.500000000 1 0 0 1 1 1 0 0 0.027093596 0.363636364 0.833333333 0.041666667 1 1 0 0 1 0 0 0.500000000 0 1 1 1 1 1 0 0 0 0 0 0 0 0 0 0 0 0 0 0.166666667 1 1 0.148936170 1 0
 0 0 0 1 0 0 1 1 0 0 1 0.179802956 0.007575758 0 0.155555556 0 0 1 0 1 0 0 0 0.500000000 0 0 0 0 0 0 0 0 0 0 0 0 0 0.200000000 0 0 0 0 0.333333333 1 0 0.319148936 1 0
 0 0 0 1 0 0 1 1 0 1 0 0 0.068181818 0 0.066666667 0 1 0 0 1 0 0 0 0.500000000 0 0 0 0 0 0 0 0 0.333333333 0 0 0.250000000 0 0 0 0.142857143 0 0 0.500000000 1 0 0.297872340 1 0
 0 0 0 1 1 0 0 1 0 0 1 0.174876847 0 0 0.433333333 0 0 1 0 0 1 0 0 0.500000000 0 0 0 0 0 0 0 0 0 0 0 0 0.200000000 0 0 0 0 0 0.500000000 1 0 0.531914894 1 0
 0 0 0 1 0 0 1 1 0 1 0 0.027093596 0.068181818 0.833333333 0.033333333 0.176470588 1 0 0 1 0 0 0.500000000 0.250000000 1 1 1 1 1 0 0 0 0 0 0 0 0 0 0 0 0 0 0.166666667 1 1 0.276595745 1 0
 0 0 0 1 0 1 0 1 0 1 0 0.056650246 0.090909091 0 0.150000000 0 1 0 0 1 0 0 0 0 0 0 0 0 0 0 0.500000000 0.250000000 0 0 0.333333333 0 0 0.200000000 0 0.142857143 0 0 0.166666667 1 0 0.127659574 1 0
 0 0 0 1 0 0 1 1 0 0 1 0.059113300 0.363636364 0 0.066666667 0 0 1 0 0 1 0 0 0 0 0 0 0 0 0.250000000 1 0.750000000 0 0 1 0.250000000 0 1 0 0.428571429 0 0 0.833333333 1 0 0.361702128 1 0
 0 0 0 1 1 0 0 1 0 1 0 0.145320197 0 0 0.027777778 0 1 0 0 1 0 0 0 0.750000000 0 0 0 0 0 0 0 0.250000000 0 0 0.333333333 0 0 0.200000000 0 0.142857143 0 0 0.500000000 1 0 0.297872340 1 0
 0 0 0 1 0 1 0 0 1 1 0 0.359605911 0.011363636 0 0.013888889 0 1 0 0 1 0 0 0 0 0 0 0 0 0 0 0.500000000 0.250000000 0.333333333 0 0 0.250000000 0.200000000 0 0 0.142857143 0 0 0.166666667 1 0 0.148936170 1 0
 0 0 0 1 1 0 0 1 0 0 1 0.056650246 0.227272727 0 1 0 0 1 0 1 0 0 0 0 0 0 0 0 0 0.250000000 0.500000000 0.500000000 0.333333333 0 0.333333333 0.250000000 0 0.200000000 0 0.285714286 0 0 0.166666667 1 0 0.851063830 1 0
 0 0 0 1 0 1 0 1 0 1 0 0.588669951 0 0 0.133333333 0 1 0 0 1 0 0 0 0 0 0 0 0 0 0 1 0.500000000 0 0.666666667 0 0 0.600000000 0 0 0.285714286 0 0 0.833333333 1 0 0.127659574 1 0
 0 0 0 1 0 1 0 1 0 1 0 0.012315271 0.022727273 0 0.022222222 0 0 1 0 1 0 0 0 0 0 0 0 0 0 0 0 0.250000000 0.333333333 0 0 0.250000000 0 0 0 0.285714286 0 0 0.166666667 1 0 0.127659574 1 0
 0 0 0 1 1 0 0 1 0 0 1 0.352216749 0 0 0.100000000 0 1 0 0 0 1 0 0 0 0 0 0 0 0 0 0.500000000 0.250000000 0 0 0 0 0 0.200000000 0 0.142857143 0 0 0.166666667 1 0 0.404255319 1 0
 0 0 0 1 0 1 0 1 1 0 0 0 0.250000000 0 0.083333333 0 1 0 0 1 0 0 0 0 0 0 0 0 0 0 0 0.250000000 0 0 0.333333333 0.250000000 0 0.200000000 0 0.142857143 0 0 0.500000000 1 0 0.425531915 1 0
 0 0 0 1 1 0 0 1 1 0 0 0 0.068181818 0 0.033333333 0 1 0 0 1 0 0 0 0.500000000 0 0 0 0 0 0 1 1 0.333333333 1 1 0.250000000 1 0.600000000 0 1 0 0 0.166666667 1 0 0.468085106 1 0
 0 0.069410015 1 1 0 1 0 1 0 0 1 0.012315271 0.136363636 0 0.036111111 0 1 0 0 1 0 0 0 0 0 0 0 0 0 0 0 0 0 0 0 0 0 0 0 0 0 0 0.333333333 1 0 0.148936170 1 0
 0 0 0 1 1 0 0 1 1 0 0 0.076354680 0.045454545 0 0.116666667 0 1 0 0 1 0 0 0 0.250000000 0 0 0 0 0 0 0 0.250000000 0 0.333333333 0 0 0.400000000 0.200000000 0 0.285714286 0 0 0.500000000 1 0 0.148936170 1 0
 0 0 0 1 1 0 0 1 0 1 0 0.022167488 0.022727273 0.833333333 0.036111111 0.705882353 1 0 0 1 0 0 0 0 1 1 1 1 1 0 0 0 0 0.333333333 0 0 0.200000000 0 0 0.142857143 0 0 0.333333333 1 1 0.042553191 1 0
 0 0 0 1 0 1 0 1 1 0 0 0.002463054 0.037878788 0 0.200000000 0 1 0 0 1 0 0 0 0 0 0 0 0 0 0 0.500000000 0.750000000 0 0 1 0 0 0.600000000 0 0.428571429 0 0 1 1 0 0.553191489 1 0
 0 0 1 1 0 1 0 1 1 0 0 0.174876847 0 0 0.333333333 0 0 1 0 1 0 0 0 0 0 0 0 0 0 0 0 0 0 0 0 0 0 0 0 0 0 0 0.166666667 1 0 0.425531915 1 0
 0 0 0 1 1 0 0 1 1 0 0 0.142857143 0 0 0.566666667 0 1 0 0 1 0 0 0 0.750000000 0 0 0 0 0 0 0 0 0 0 0 0 0 0 0 0 0 0 0.166666667 1 0 0.276595745 0 1
 0 0 0 1 0 0 1 0 1 0 1 0.019704433 0.363636364 0 0.333333333 0 1 0 0 1 0 0 0 0 0 0 0 0 0 0 0 0 0.333333333 0 0 0.500000000 0 0.200000000 0 0.142857143 0 0 0.500000000 1 0 0.468085106 0 1
 0 0 0 1 0 0 1 1 1 0 0 0.322660099 0 0.111111111 0.500000000 0 0 1 0 0 1 0 1 0.500000000 0 0 1 0 0 0 0 0 0 0 0 0 0 0 0 0 0 0 0.833333333 1 1 0.553191489 0 1
 0 0 0 1 1 0 0 1 1 0 0 0.192118227 0 0 0.458333333 0 1 0 0 1 0 0 0 1 0 0 0 0 0 0 0 0 0 0 0 0 0 0 0 0 0 0 0.333333333 1 0 0.531914894 0 1
 0 0 0.500000000 1 1 0 0 0 1 1 0 0.467980296 0 0.833333333 0.011111111 0.490196078 1 0 0 1 0 0 0 0.250000000 1 1 1 1 1 0 0 0.250000000 0.333333333 0 0 0.250000000 0 0 0 0.142857143 0 0 0.333333333 1 1 0.319148936 0 1
 0 0 0 1 0 1 0 1 0 1 0 0.002463054 0.045454545 0 0.033333333 0 1 0 0 1 0 0 0 0 0 0 0 0 0 0 0 0 0 0 0 0 0.200000000 0 0 0 0 0 0.500000000 1 0 0.021276596 0 1
 0 0 0 1 1 0 0 1 1 0 0 0.145320197 0 0 0.108333333 0 1 0 0 1 0 0 0 1 0 0 0 0 0 0 0 0 0 0 0 0 0 0.400000000 0 0 0 0 0.500000000 1 0 0.382978723 0 1
 0 0.071393158 0.500000000 1 1 0 0 1 1 0 0 0.559113300 0 0 0.533333333 0 1 0 0 1 0 0 0 0.250000000 0 0 0 0 0 0 0 0 0 0 0 0.250000000 0 0 0 0 0 0 0.333333333 1 0 0.680851064 0 1
 0 0 0 1 0 0 1 1 0 1 0 0 0.015151515 0 0.011111111 0 1 0 0 1 0 0 0 0 0 0 0 0 0 0 0 0 0 0.333333333 0 0 0.200000000 0 0 0.142857143 0 0 0.500000000 1 0 0.595744681 0 1
 0 0 0 1 1 0 0 1 1 0 0 0.204433498 0 0 0.133333333 0 1 0 0 1 0 0 0 0.500000000 0 0 0 0 0 0 0 0 0 0 0 0 0 0 0 0 0 0 0.166666667 1 0 0.255319149 0 1
 0 0.173029251 0.500000000 1 1 0 0 1 0 0 1 0.088669951 0.003787879 0 0.069444444 0 0 1 0 1 0 0 0 0.500000000 0 0 0 0 0 0 0 0 0 0 0 0 0 0 0 0 0 0 0.333333333 1 0 0.319148936 0 1
 0 0 0 1 0 0 1 1 1 0 0 0.105911330 0.030303030 0 0.022222222 0 1 0 0 1 0 0 0 0.250000000 0 0 0 0 0 0 0.500000000 0.250000000 0 0 0 0 0 0.200000000 0 0.142857143 0 0 0.166666667 1 0 0.297872340 0 1
 0 0 0 1 0 0 1 1 1 0 0 0.233990148 0 0 0.066666667 0 1 0 0 1 0 0 0 0 0 0 0 0 0 0 0 0 0 0 0.333333333 0 0 0.800000000 0 0.142857143 0 0 0.500000000 1 0 0.957446809 0 1
 0 0 0 1 0 0 1 1 0 1 0 0.019704433 0.090909091 0 0.255555556 0 1 0 0 1 0 0 0 1 0 0 0 0 0 0 0 0 0 0.333333333 0 0 0.600000000 0 0 0.428571429 0 0 0.500000000 1 0 0.425531915 0 1
 0 0.687159147 0.500000000 1 1 0 0 1 1 0 0 0.071428571 0.409090909 0 0.033333333 0 0 1 0 0 1 0 0 0.750000000 0 0 0 0 0 0 0 0 0.333333333 0 0 0.250000000 0 0.200000000 0 0.285714286 0 0 0.333333333 1 0 0.595744681 0 1
 0 0 0 1 1 0 0 1 1 0 0 0.123152709 0 0 0.361111111 0 0 1 0 0 1 0 0 0 0 0 0 0 0 0 0 0 0 0 0 0 0 0 0 0 0 0 0.833333333 1 0 0.723404255 0 1
 0 0 0 1 0 1 0 1 1 0 0 0.921182266 0.011363636 0 0.441666667 0 1 0 0 1 0 0 0 0 0 0 0 0 0 0 0.500000000 0.250000000 0.333333333 0 0.333333333 0.500000000 0.600000000 0.200000000 0 0.285714286 0 0 0.166666667 1 0 0.276595745 0 1
 0 0 0 1 1 0 0 1 1 0 0 0.233990148 0 0 0.400000000 0 0 1 0 1 0 0 0 0.750000000 0 0 0 0 0 0 0.500000000 0.250000000 0 0 0.333333333 0.250000000 0 0.400000000 0 0.142857143 0 0 0.166666667 1 0 0.382978723 0 1
 0 0.497273178 1 1 1 0 0 1 1 0 0 0.100985222 0.227272727 0.277777778 0.466666667 0 1 0 0 1 0 0 1 0.750000000 0 0 1 0 1 0 0 0 0 0 0.666666667 0.250000000 0 0.600000000 0 0.285714286 0 0 0.166666667 1 1 0.382978723 0 1
 0 0 0 1 0 0 1 1 1 0 0 0.174876847 0 0 0.011111111 0 1 0 0 1 0 0 0 0 0 0 0 0 0 0 0 0 0 0 0 0 0 0 0 0 0 0 0.333333333 1 0 0.489361702 0 1
 0 0 0 1 1 0 0 1 1 0 0 0.307881773 0.022727273 0 0.016666667 0 1 0 0 1 0 0 0 0 0 0 0 0 0 0 0 0.500000000 0 0.666666667 0 0 0.400000000 0 0 0.285714286 0 0 0.333333333 1 0 0.531914894 0 1
 0 0 0 1 0 0 1 1 1 0 0 0.142857143 0.041666667 0 0.544444444 0 0 1 0 0 1 0 0 0.750000000 0 0 0 0 0 0 0 0 0 0 0 0 0 0 0 0 0 0 0.166666667 1 0 0.468085106 0 1
 0 0 0 1 0 0 1 0 1 1 0 0.096059113 0.015151515 0 0.100000000 0 0 1 0 0 1 0 0 0 0 0 0 0 0 0 0 0 0 0 0 0 0 0 0 0 0 0 0.166666667 1 0 0.212765957 0 1
 0 0 0 1 1 0 0 1 1 0 0 0.204433498 0 0 0.200000000 0 1 0 0 1 0 0 0 0.500000000 0 0 0 0 0 0 0 0.250000000 0 0 0.333333333 0 0 0.200000000 0 0.142857143 0 0 0.500000000 1 0 0.574468085 0 1
 0 0 0 1 1 0 0 1 1 0 0 0.322660099 0 0 0 0 0 1 0 1 0 0 0 1 0 0 0 0 0 0 0 0 0 0 0.666666667 0 0 0.400000000 0 0.285714286 0 0 0.500000000 1 0 0.340425532 0 1
 0 0 0 1 0 1 0 1 1 0 0 0.381773399 0 0 0.333333333 0 1 0 0 1 0 0 0 0 0 0 0 0 0 0 0 0 0 0 0 0.250000000 0 0 0 0 0 0 0.166666667 1 0 0.404255319 0 1
 0 0 0 1 1 0 0 1 0 0 1 0.825123153 0 0 0 0 1 0 0 1 0 0 0 0 0 0 0 0 0 0 0 0 0 0 0 0 0 0 0 0 0 0 1 1 0 0.702127660 0 1
 0 0 0 1 1 0 0 1 0 1 0 0 0.022727273 0.333333333 0.030555556 0.235294118 1 0 0 1 0 0 0.500000000 0.250000000 0 0 0 1 0 0 0.500000000 0.250000000 0.333333333 0.666666667 0 0.250000000 0.600000000 0 0 0.428571429 0 0 0.500000000 1 1 0.234042553 0 1
 0 0 0 1 0 0 1 1 1 0 0 0.056650246 0.136363636 0.833333333 0.083333333 0 0 1 0 0 1 0 0 1 1 1 1 1 1 0 0 0 0 0 0 0 0.200000000 0 0 0 0 0 0.166666667 1 1 0.382978723 0 1
 0 0 0 1 1 0 0 1 0 1 0 0.706896552 0 0.833333333 0.266666667 0 1 0 0 1 0 0 0.500000000 0 0 0 1 0 0 0 0 0 0 0 0 0 0 0 0 0 0 0 1 1 1 0.106382979 0 1
 0 0 0 1 1 0 0 1 1 0 0 0.145320197 0 0 0.083333333 0 1 0 0 1 0 0 0 0 0 0 0 0 0 0 0 0.500000000 0 0.333333333 0 0.250000000 0.200000000 0.600000000 0 0.285714286 0 0 0.666666667 1 0 0.276595745 0 1
 0 0 1 1 0 0 1 1 0 1 0 0.041871921 0.454545455 0 0.019444444 0 0 1 0 0 1 0 0 0 0 0 0 0 0 0.250000000 0.500000000 0.250000000 0.333333333 0 0 0.500000000 0 0 0 0.142857143 0 0 0.166666667 1 0 0.212765957 0 1
 0 0 0 1 0 0 1 1 0 1 0 0.736453202 0 0 0.100000000 0 1 0 0 1 0 0 0 0 0 0 0 0 0 0 0 0 0 0 0 0 0 0 0 0 0 0 0.333333333 1 0 0.744680851 0 1
 0 0 0 1 1 0 0 1 0 0 1 0.071428571 0.909090909 0 0 0 1 0 0 1 0 0 0 0 0 0 0 0 0 0 0 0 0 0 0 0 0 0 0 0 0 0 0.333333333 1 0 1 0 1
 0 1 0.500000000 1 0 0 1 1 0 1 0 0.096059113 0.015151515 0 0.155555556 0 1 0 0 1 0 0 0 0.250000000 0 0 0 0 0 0 0 0 0.333333333 0 0 0.250000000 0 0 0 0.142857143 0 0 0.166666667 1 0 0.404255319 0 1
 0 1 0.500000000 1 0 1 0 0 1 1 0 0.529556650 0 0 0.166666667 0 1 0 0 1 0 0 0 0 0 0 0 0 0 0 0 0 0.333333333 0 0 0.250000000 0 0 0 0.142857143 0 0 0 1 0 0.021276596 0 1
 0 0 0 1 1 0 0 1 1 0 0 0.233990148 0 0 0.233333333 0 1 0 0 1 0 0 0 0.250000000 0 0 0 0 0 0 0 0 0 0 0 0 0 0 0 0 0 0 1 1 0 0.276595745 0 1
 0 0 0 1 1 0 0 1 0 1 0 0.233990148 0 0 0.266666667 0 1 0 0 1 0 0 0 0 0 0 0 0 0 0 0 0.250000000 0 0 1 0 0 0.600000000 0 0.428571429 0 0 0.833333333 1 0 0.617021277 0 1
 0 0 0 1 1 0 0 1 1 0 0 0.411330049 0 0 0.022222222 0 1 0 0 0 1 0 0 0.750000000 0 0 0 0 0 0 0 0 0 0.666666667 0 0 0.400000000 0 0 0.285714286 0 0 0.166666667 1 0 0.425531915 0 1
 0 0 0 1 1 0 0 1 1 0 0 0.736453202 0 0 0.533333333 0 1 0 0 1 0 0 0 0 0 0 0 0 0 0 0 0.250000000 0 0 0.666666667 0 0 1 0 0.285714286 0 0 0.166666667 1 0 0.978723404 0 1
 0 0 0.500000000 1 1 0 0 1 1 0 0 0.204433498 0 0 0.500000000 0 0 1 0 1 0 0 0 0.500000000 0 0 0 0 0 0.250000000 0.500000000 0.250000000 0 0.666666667 0 0 0.600000000 0 0 0.285714286 0 0 0.166666667 1 0 0.574468085 0 1
 0 0 0 1 0 1 0 0 1 1 0 0.884236453 0 0 0.266666667 0 1 0 0 1 0 0 0 0 0 0 0 0 0 0 0 0 0 0 0 0 0.200000000 0 0 0 0 0 0.333333333 1 0 0.319148936 0 1
 0 0 0 1 0 0 1 1 0 0 1 0.174876847 0 0 0.116666667 0 0 1 0 1 0 0 0 0 0 0 0 0 0 0 0 0 0 0 0 0 0 0 0 0 0 0 0.500000000 1 0 0.914893617 0 1
 0 0 0 1 0 1 0 1 0 1 0 0.091133005 0.007575758 0 0.033333333 0 1 0 0 1 0 0 0 0 0 0 0 0 0 0 0 0 0 0 0 0 0 0 0 0 0 0 0.166666667 1 0 0.404255319 0 1
 0 0 0 1 1 0 0 1 1 0 0 0.233990148 0 0 0.266666667 0 0 1 0 0 1 0 0 0 0 0 0 0 0 0 0 0 0 0 0 0 0 0 0 0 0 0 0.166666667 1 0 1 0 1
 0 0 0 1 0 0 1 1 0 1 0 0.002463054 0.030303030 0.833333333 0.033333333 0.117647059 1 0 0 1 0 0 0.500000000 0 0 0 1 0 0 0 0.500000000 0.500000000 0 0.666666667 0 0.750000000 0.400000000 0 0 0.428571429 0 0 0.500000000 1 1 0.085106383 0 1
 0 0 0 1 1 0 0 1 0 0 1 0.736453202 0 0 0.633333333 0 1 0 0 1 0 0 0 0 0 0 0 0 0 0 0 0 0 0 0 0 0 0 0 0 0 0 0.500000000 1 0 0.829787234 0 1
 0 0 0 1 0 1 0 1 0 0 1 0.115763547 0 0 0.133333333 0 1 0 0 1 0 0 0 0 0 0 0 0 0 0 0 0.250000000 0 0 0.333333333 0 0 0.200000000 0 0.142857143 0 0 0 1 0 0.531914894 0 1
 0 0 0 1 0 1 0 1 0 1 0 0.603448276 0.022727273 0 0.050000000 0 1 0 0 1 0 0 0 0 0 0 0 0 0 0.250000000 0.500000000 0.500000000 0.333333333 0.333333333 0 0.500000000 0.200000000 0 0 0.285714286 0 0 0.500000000 1 0 0.021276596 0 1
 0 0 0 1 0 0 1 1 0 1 0 0.012315271 0.045454545 0 0.083333333 0 1 0 0 1 0 0 0 0.500000000 0 0 0 0 0 0 0 0 0.333333333 0 0 0.250000000 0 0 0 0.142857143 0 0 0.333333333 1 0 0.106382979 0 1
 1 1 0.500000000 1 0 1 0 1 0 1 0 0.108374384 0 0 0.233333333 0 1 0 0 1 0 0 0 0 0 0 0 0 0 0 0 0 0 0 0 0 0 0 0 0.142857143 0 0 1 1 0 0.319148936 0 1
 0 0 0 1 1 0 0 1 1 0 0 0.012315271 0.159090909 0 0.033333333 0 1 0 0 1 0 0 0 0.500000000 0 0 0 0 0 0 0 0.250000000 0.333333333 0 0 0.250000000 0 0.200000000 0 0.142857143 0 0 0.333333333 1 0 0.404255319 0 1
 0 0 0 1 0 1 0 1 0 1 0 0.071428571 0.098484848 0 0 0 1 0 0 1 0 0 0 0 0 0 0 0 0 0 0 0 0 0 0 0 0.400000000 0 0 0 0 0 0.166666667 1 0 0.872340426 0 1
 0 0 0 1 0 0 1 1 0 0 1 0.293103448 0 0 0 0 0 1 0 0 1 0 0 0 0 0 0 0 0 0 0 0 0.333333333 0 0 0.250000000 0 0 0 0.142857143 0 0 0.833333333 1 0 0.851063830 0 1
 0 0 0 1 0 1 0 0 1 1 0 0.736453202 0 0 0.133333333 0 1 0 0 0 1 0 0 0 0 0 0 0 0 0 1 0.750000000 0.666666667 0.666666667 0.333333333 0.500000000 1 0.400000000 0 0.714285714 0 0 0.333333333 1 0 0.191489362 0 1
 0 0 0.500000000 1 0 0 1 1 1 0 0 0.293103448 0 0 0.166666667 0 1 0 0 1 0 0 0 0 0 0 0 0 0 0 0 0.500000000 0.333333333 0.666666667 0 0.250000000 1 0.200000000 0 0.428571429 0 0 0.166666667 1 0 0.595744681 0 1
 0 0 0.500000000 1 1 0 0 1 0 1 0 0 0.090909091 0 0.744444444 0 1 0 0 1 0 0 0 0.750000000 0 0 0 0 0 0 0 0 0 0 0 0 0 0 0 0 0 0 0.500000000 1 0 0.489361702 0 1
 0 0 0 1 0 0 1 1 1 0 0 0.056650246 0.090909091 0.833333333 0.266666667 0.470588235 1 0 0 1 0 0 0 0 1 1 1 1 1 0 0 0 0 0 0 0 0.200000000 0 0 0 0 0 0.166666667 1 1 0.212765957 0 1
 0 0 0 1 1 0 0 1 1 0 0 0.413793103 0.003787879 0 0.105555556 0 1 0 0 1 0 0 0 0 0 0 0 0 0 0 0 0 0 0 0 0 0 0.400000000 0 0 0 0 1 1 0 0.680851064 0 1
 0 0 0 1 0 1 0 1 0 1 0 0.204433498 0 0 0.133333333 0 1 0 0 1 0 0 0 0 0 0 0 0 0 0 0.500000000 0.250000000 0.333333333 0 0.333333333 0.250000000 0 0.200000000 0 0.285714286 0 0 0.166666667 1 0 0.191489362 0 1
 0 0 0 1 1 0 0 1 0 0 1 0.056650246 0.068181818 0.833333333 0.183333333 0 1 0 0 1 0 0 1 0 1 1 1 1 1 0 0 0 0 0 0 0 0 0.200000000 0 0 0 0 0.833333333 1 1 0.191489362 0 1
 0 0 0 1 1 0 0 0 1 1 0 0.884236453 0 0 0.072222222 0 1 0 0 1 0 0 0 0.500000000 0 0 0 0 0 0 0 0.250000000 0 0 0.666666667 0 0 0.800000000 0 0.285714286 0 0 0.166666667 1 0 0.234042553 0 1
 0 0 0 1 1 0 0 1 0 1 0 0.029556650 0.068181818 0 0.083333333 0 1 0 0 1 0 0 0 0.250000000 0 0 0 0 0 0 0 0.250000000 0 0 0 0 0 0 0 0.142857143 0 0 0.333333333 1 0 0.212765957 0 1
 0 0 0 1 0 1 0 1 1 0 0 0.056650246 0.102272727 0 0.030555556 0 1 0 0 1 0 0 0 0 0 0 0 0 0 0 0 0.250000000 0.333333333 0.666666667 0 0.500000000 0.400000000 0 0 0.571428571 0 0 0.500000000 1 0 0.191489362 0 1
 0 0 0 1 1 0 0 1 1 0 0 0.056650246 0.090909091 0 0.100000000 0 1 0 0 1 0 0 0 0.750000000 0 0 0 0 0 0 0 0 0 0 0 0 0 0 0 0 0 0 0.833333333 1 0 0.404255319 0 1
 0 0 0.500000000 1 0 1 0 0 1 1 0 0.022167488 0.454545455 0 0.383333333 0 1 0 0 1 0 0 0 0 0 0 0 0 0 0 0 0 0 0 0 0 0.200000000 0.400000000 0 0 0 0 0.166666667 1 0 0.319148936 0 1
 0 0 0.500000000 1 1 0 0 1 1 0 0 0 0.090909091 0 0.166666667 0 1 0 0 1 0 0 0 0 0 0 0 0 0 0 0 0.500000000 0.666666667 0 0.333333333 0.750000000 0 0.200000000 0 0.428571429 0 0 0.166666667 1 0 0.191489362 0 1
 0 0 0.500000000 1 1 0 0 1 1 0 0 0.068965517 0.231060606 0 0.013888889 0 1 0 0 1 0 0 0 0.500000000 0 0 0 0 0 0 0.500000000 0.500000000 0 0 1 0.250000000 0 0.800000000 0 0.571428571 0 0 0.500000000 1 0 0.276595745 0 1
 0 0 0 1 1 0 0 1 1 0 0 0.204433498 0 0 0.433333333 0 1 0 0 1 0 0 0 0 0 0 0 0 0 0 0 0.250000000 0 0 0.333333333 0 0 0.800000000 0 0.142857143 0 0 0.166666667 1 0 0.680851064 0 1
 0 0 0 1 0 0 1 1 0 1 0 0.137931034 0.034090909 0 0.091666667 0 1 0 0 1 0 0 0 0.500000000 0 0 0 0 0 0 0 0 0 0 0 0 0 0 0 0 0 0 0.666666667 1 0 0.191489362 0 1
 0 0 0 1 1 0 0 1 1 0 0 0.115763547 0 0 0.033333333 0 1 0 0 1 0 0 0 0.500000000 0 0 0 0 0 0 0 0.250000000 0 0 0.333333333 0 0 0.200000000 0 0.142857143 0 0 1 1 0 0.425531915 0 1
 0 0 0 1 0 1 0 1 1 0 0 0.322660099 0 0 0 0 1 0 0 1 0 0 0 0 0 0 0 0 0 0 0.500000000 0.250000000 0 0 0.333333333 0 0 0.200000000 0 0.142857143 0 0 0.333333333 1 0 0.404255319 0 1
 0 0 0 1 1 0 0 1 1 0 0 0.145320197 0 0 0.166666667 0 1 0 0 1 0 0 0 0.250000000 0 0 0 0 0 0 0 0 0 0 0 0 0 0 0 0 0 0 0.166666667 1 0 0.510638298 0 1
 0 0 0 1 1 0 0 1 1 0 0 0.204433498 0 0 0.383333333 0 1 0 0 1 0 0 0 0.250000000 0 0 0 0 0 0 0 0.500000000 0 0 0.666666667 0 0 0.400000000 0 0.285714286 0 0 1 1 0 0.191489362 0 1
 0 0 0 1 0 1 0 1 0 1 0 0.413793103 0.003787879 0 0.305555556 0 1 0 0 1 0 0 0 0 0 0 0 0 0 0 0 0 0.333333333 0 0 0.250000000 0 0 0 0.142857143 0 0 0.166666667 1 0 0.234042553 0 1
 0 0 0.500000000 1 1 0 0 1 1 0 0 0.647783251 0 0 0.066666667 0 1 0 0 1 0 0 0 0.250000000 0 0 0 0 0 0 0 0 0 0 0 0 0 0 0 0 0 0 0 1 0 0.531914894 0 1
 0 0 0 1 1 0 0 1 1 0 0 0.100985222 0.022727273 0 0.133333333 0 1 0 0 1 0 0 0 1 0 0 0 0 0 0 0 0 0 0 0.333333333 0 0.200000000 0.400000000 0 0.142857143 0 0 0.166666667 1 0 0.382978723 0 1
 0 0 0 1 0 0 1 1 0 1 0 0.019704433 0.056818182 0 0.116666667 0 1 0 0 1 0 0 0 0 0 0 0 0 0 0 0 0 0 0 0 0 0.400000000 0 0 0 0 0 0.166666667 1 0 0.085106383 0 1
 0 0 0 1 0 0 1 1 1 0 0 0.007389163 0.090909091 0 0.002777778 0 0 1 0 0 1 0 0 0 0 0 0 0 0 0 0.500000000 0.250000000 0 0 0.333333333 0 0 0.400000000 0 0.428571429 0 0 0.166666667 1 0 0.553191489 0 1
 0 0 0 1 1 0 0 1 0 1 0 0.359605911 0 0.166666667 0.025000000 0.205882353 1 0 0 1 0 0 0 0 0 0 0 0 0 0 0 0 0 0 0 0.250000000 0 0 0 0 0 0 0.333333333 1 1 0.255319149 0 1
 0 0 0 1 1 0 0 1 1 0 0 0.086206897 0 0 0.333333333 0 1 0 0 1 0 0 0 0.500000000 0 0 0 0 0 0 0 0 0 0 0 0 0 0 0 0 0 0 0.166666667 1 0 0.531914894 0 1
 0 0.095686663 0.500000000 1 0 1 0 1 0 1 0 0.440886700 0 0 0.277777778 0 1 0 0 1 0 0 0 0 0 0 0 0 0 0 0 0 0 0 0 0.500000000 0.200000000 0 0 0.142857143 0 0 0.333333333 1 0 0.191489362 0 1
 0 0 0 1 0 1 0 0 1 1 0 0.352216749 0 0 0.066666667 0 1 0 0 1 0 0 0 0 0 0 0 0 0 0.500000000 1 1 1 0.333333333 0 1 0.400000000 0 0 1 0 0 0.166666667 1 0 0 0 1
 0 0 0 0 1 1 0 1 0 1 0 0.012315271 0.094696970 0 0.016666667 0 1 0 0 1 0 0 0 0 0 0 0 0 0 0 0.500000000 0.250000000 0 0 0 0.250000000 0.400000000 0.200000000 0 0.142857143 0 0 0.333333333 1 0 0.446808511 0 1
 0 0 0 1 0 0 1 1 0 1 0 0.322660099 0 0 0.011111111 0 1 0 0 1 0 0 0 1 0 0 0 0 0 0 0 0.250000000 0.333333333 0 0 0.250000000 0 0 0 0.142857143 0 0 0.833333333 1 0 0.574468085 0 1
 0 0 0 1 1 0 0 1 1 0 0 0.086206897 0 0 0.133333333 0 1 0 0 1 0 0 0 0.250000000 0 0 0 0 0 0 0 0 0 0 0 0 0 0 0 0 0 0 0.333333333 1 0 0.765957447 0 1
 0 0.271194844 0.500000000 1 1 0 0 1 1 0 0 0.027093596 0.303030303 0 0.283333333 0 1 0 0 1 0 0 0 0.500000000 0 0 0 0 0 0 0.500000000 0.250000000 0.333333333 0 0.333333333 0.250000000 0 1 0 0.285714286 0 0 0.166666667 1 0 0.574468085 0 1
 0 0.855230540 1 1 1 0 0 1 0 0 1 0.795566502 0 0 1 0 0 1 0 0 1 0 0 0 0 0 0 0 0 0 0 0.250000000 0 0.333333333 0 0 0.200000000 0 0 0.142857143 0 0 0.166666667 1 0 0.702127660 0 1
 0 0 0 1 1 0 0 1 0 0 1 0.248768473 0.022727273 0 0.016666667 0 1 0 0 1 0 0 0 0.750000000 0 0 0 0 0 0 0 0 0 0 0 0 0 0 0 0 0 0 0.166666667 1 0 0.617021277 0 1
 0 0 0 1 0 0 1 1 1 0 0 0.056650246 0.045454545 0.500000000 0.016666667 0.470588235 1 0 0 1 0 0 0.500000000 0 1 1 1 1 1 0 0 0 0.333333333 0 0 0.250000000 0.200000000 0 0 0.142857143 0 0 0.500000000 1 1 0.170212766 0 1
 0 0 0 1 1 0 0 1 0 0 1 0.027093596 0.909090909 0 1 0 0 1 0 0 1 0 0 0 0 0 0 0 0 0 0 0.250000000 0 0 0.333333333 0 0 0.200000000 0 0.142857143 0 0 0.166666667 1 0 0.808510638 0 1
 0 0 0 1 1 0 0 1 0 1 0 0.032019704 0.090909091 0 0.950000000 0 1 0 0 1 0 0 0 0.250000000 0 0 0 0 0 0 1 0.500000000 0 0 0.666666667 0 0.400000000 0.400000000 0 0.285714286 0 0 0.166666667 1 0 0.553191489 0 1
 0 0 0.500000000 1 1 0 0 1 1 0 0 0.056650246 0.454545455 0 0.105555556 0 1 0 0 1 0 0 0 0.500000000 0 0 0 0 0 0 0 0 0 0 0.333333333 0 0 0.200000000 0 0.142857143 0 0 0.166666667 1 0 0.680851064 0 1
 0 0 0 1 0 1 0 1 0 1 0 0.056650246 0.045454545 0 0.083333333 0 1 0 0 1 0 0 0 0 0 0 0 0 0 0 0.500000000 0.250000000 0.333333333 0 0 0.250000000 0 0 0 0.142857143 0 0 0.166666667 1 0 0.255319149 0 1
 0 0.642042638 0.500000000 1 0 0 1 1 1 0 0 0.071428571 0.681818182 0.277777778 0.133333333 0.176470588 0 1 0 1 0 0 0 0.500000000 0 0 1 0 0 0 0 0 0 0 0 0.250000000 0 0 0 0 0 0 0.166666667 1 1 0.489361702 0 1
 0 0 0 1 0 1 0 1 1 0 0 0.354679803 0.003787879 0 0.869444444 0 1 0 0 1 0 0 0 0 0 0 0 0 0 0 0 0 0 0 0 0 0.200000000 0 0 0 0 0 0.166666667 1 0 0.595744681 0 1
 0 0 0 1 0 1 0 1 0 1 0 0 0.045454545 0 0.200000000 0 1 0 0 1 0 0 0 0 0 0 0 0 0 0 0 0 0 0 0 0.250000000 0 0 0 0.142857143 0 0 0.500000000 1 0 0.255319149 0 1
 0 0 0 1 0 0 1 1 0 1 0 0.071428571 0.022727273 0 0.016666667 0 1 0 0 1 0 0 0 0.250000000 0 0 0 0 0 0 0 0.250000000 0 0.333333333 0 0 0.400000000 0 0 0.142857143 0 0 0.166666667 1 0 0.106382979 0 1
 0 0 0 1 0 0 1 1 0 1 0 0.307881773 0.022727273 0 0.200000000 0 1 0 0 1 0 0 0 0 0 0 0 0 0 0 0 0 0.333333333 0.333333333 0 0.250000000 0.400000000 0 0 0.285714286 0 0 0.333333333 1 0 0.340425532 0 1
 0 0 0 1 1 0 0 1 0 1 0 0.004926108 0.318181818 0 0.333333333 0 1 0 0 1 0 0 0 0.500000000 0 0 0 0 0 0 0 1 0 0 1 0 0 1 0 0.714285714 0 0 0.500000000 1 0 0.489361702 0 1
 0 0.242935052 0.500000000 0 1 1 0 1 0 1 0 0.145320197 0 0 0.266666667 0 1 0 0 1 0 0 0 0 0 0 0 0 0 0 0 0 0 0 0 0 0 0 0 0 0 0 0.166666667 1 0 0.297872340 0 1
 0 0 0 1 0 1 0 1 0 1 0 0.034482759 0.818181818 0 0.100000000 0 1 0 0 1 0 0 0 0 0 0 0 0 0 0 0 0 0 0 0 0 0 0 0 0 0 0 0.166666667 1 0 0.382978723 0 1
 0 0 0 1 0 1 0 1 0 1 0 0.027093596 0.136363636 0 0.166666667 0 1 0 0 1 0 0 0 0 0 0 0 0 0 0 0 0 0.666666667 0 0 0.500000000 0.200000000 0 0 0.571428571 0 0 0.500000000 1 0 0.489361702 0 1
 0 0 0 1 0 0 1 1 1 0 0 0.305418719 0 0.833333333 0.011111111 1 0 1 0 1 0 0 0 0.500000000 1 1 1 1 1 0 0 0 0 0 1 0.250000000 0 0.600000000 0 0.428571429 0 0 0.833333333 1 1 0.531914894 0 1
 0 0 0 1 1 0 0 1 1 0 0 0.189655172 0.022727273 0 0.166666667 0 0 1 0 1 0 0 0 0 0 0 0 0 0 0 0 0.250000000 0 0 0.666666667 0 0 0.400000000 0 0.285714286 0 0 0.500000000 1 0 0.595744681 0 1
 0 0 0 1 0 1 0 1 1 0 0 0.086206897 0 0 0.233333333 0 0 1 0 1 0 0 0 0 0 0 0 0 0 0 0 0 0 0 0 0 0 0 0 0 0 0 0.166666667 1 0 0.446808511 0 1
 0 0 0 1 1 0 0 1 1 0 0 0.500000000 0 0 0.900000000 0 0 1 0 1 0 0 0 0 0 0 0 0 0 0 0 0 0 0 0 0 0 0 0 0 0 0 0.333333333 1 0 0.787234043 0 1
 0 0 0 1 0 1 0 0 1 1 0 0.381773399 0 0 0.058333333 0 1 0 0 1 0 0 0 0 0 0 0 0 0 0 0 0 0 0 0 0 0.200000000 0 0 0 0 0 0.333333333 1 0 0.021276596 0 1
 0 0 0 1 0 1 0 0 1 1 0 0.100985222 0.022727273 0 0.116666667 0 1 0 0 1 0 0 0 0 0 0 0 0 0 0 0 0 0.333333333 0 0 0.250000000 0 0 0 0.142857143 0 0 0.500000000 1 0 0.085106383 0 1
 0 0.062469013 0.500000000 1 0 0 1 1 1 0 0 0.115763547 0.136363636 0.166666667 0.200000000 0.235294118 1 0 0 1 0 0 0.500000000 0.750000000 1 1 1 1 1 0 0 0 0 0 0 0.250000000 0 0 0 0 0 0 0.333333333 1 1 0.510638298 0 1
 0 0 0 1 0 0 1 0 1 1 0 0.588669951 0 0 0.333333333 0 0 1 0 1 0 0 0 0 0 0 0 0 0 0 0 0 0 0 0 0 0.200000000 0 0 0 0 0 0.333333333 1 0 0.340425532 0 1
 0 0 0 0 1 0 1 1 1 0 0 0.411330049 0 0 0.369444444 0 1 0 0 1 0 0 0 0 0 0 0 0 0 0 0 0 0 0 0 0 0 0 0 0 0 0 0.166666667 1 0 0.680851064 0 1
 0 0 0 1 1 0 0 1 1 0 0 0.145320197 0 0 0.066666667 0 1 0 0 1 0 0 0 0.750000000 0 0 0 0 0 0.250000000 0.500000000 0.750000000 0.666666667 0 0.333333333 0.500000000 0 0.200000000 0 0.428571429 0 0 0.333333333 1 0 0.340425532 0 1
 0 0 0 1 1 0 0 1 1 0 0 0.352216749 0 0 0.066666667 0 0 1 0 1 0 0 0 0 0 0 0 0 0 0 0 0.750000000 0.666666667 0.666666667 0.333333333 0.500000000 0.400000000 0.600000000 0 0.857142857 0 0 0.333333333 1 0 0.531914894 0 1
 0 0 0 1 1 0 0 1 0 1 0 0.019704433 0.681818182 0.333333333 0.133333333 0.235294118 1 0 0 1 0 0 0.500000000 0 0 0 0 1 0 0 0 0.250000000 0 0.333333333 0 0.250000000 0.200000000 0 0 0.142857143 0 0 0.833333333 1 1 0.063829787 0 1
 0 0.189885969 0.500000000 1 1 0 0 1 1 0 0 0.174876847 0 0 0.466666667 0 0 1 0 1 0 0 0 0 0 0 0 0 0 0 0 0 0 0 0 0 0 0 0 0 0 0 0.500000000 1 0 0.489361702 0 1
 0 0 0 1 0 0 1 1 1 0 0 0.197044335 0 0 0.041666667 0 1 0 0 1 0 0 0 0.750000000 0 0 0 0 0 0 0 0.500000000 0 0 0.666666667 0 0 0.400000000 0 0.285714286 0 0 0.333333333 1 0 0.382978723 0 1
 0 0 0 1 1 0 0 1 1 0 0 0.226600985 0 0 0.291666667 0 1 0 0 1 0 0 0 0.500000000 0 0 0 0 0 0 0 0 0.333333333 0 0 0.250000000 0.200000000 0 0 0.142857143 0 0 0.166666667 1 0 0.744680851 0 1
 0 0 0 1 0 1 0 1 0 0 1 0.068965517 0.045454545 0 0.038888889 0 0 1 0 1 0 0 0 0 0 0 0 0 0 0 0 0 0.333333333 0 0.333333333 0.250000000 0.200000000 0.200000000 0 0.285714286 0 0 0 1 0 0.234042553 0 1
 0 0 0 1 1 0 0 1 0 0 1 0.884236453 0 0 0.300000000 0 0 1 0 0 1 0 0 0.250000000 0 0 0 0 0 0 0 0 0 0 0 0.250000000 0 1 0 0 0 0 0.333333333 1 0 0.404255319 0 1
 0 0 0 1 0 1 0 0 1 1 0 0.086206897 0 0 0.072222222 0 1 0 0 1 0 0 0 0 0 0 0 0 0 0 0 0.250000000 0 0 0.333333333 0 0.200000000 0.200000000 0 0.142857143 0 0 0.166666667 1 0 0.276595745 0 1
 0 0 0 1 1 0 0 1 1 0 0 0.100985222 0.022727273 0 0.200000000 0 1 0 0 1 0 0 0 0.750000000 0 0 0 0 0 0 0 0 0 0 0 0 0 0 0 0 0 0 0.500000000 1 0 0.361702128 0 1
 0 0 0 1 1 0 0 1 0 1 0 0.007389163 0.791666667 0.833333333 0.166666667 0.235294118 1 0 0 1 0 0 0 0 1 1 1 1 1 0 0 0.250000000 0 0 0 0 0 0 0 0.142857143 0 0 0.500000000 1 1 0.106382979 0 1
 0 0 1 1 0 0 1 1 0 0 1 0.177339901 0.003787879 0 0.100000000 0 0 1 0 0 1 0 0 0 0 0 0 0 0 0 0 0.250000000 0 0 0 0 0 0 0 0.142857143 0 0 0.333333333 1 0 0.425531915 0 1
 0 0 0 0 1 1 0 1 0 1 0 0.174876847 0 0 1 0 0 1 0 1 0 0 0 0 0 0 0 0 0 0 0 0 0 0 0 0 0 0.200000000 0 0 0 0 0.666666667 1 0 0.787234043 0 1
 0 0 0 1 1 0 0 1 0 1 0 0.071428571 0.181818182 0 0.133333333 0 1 0 0 1 0 0 0 0 0 0 0 0 0 0 0 0.250000000 1 0.333333333 0.333333333 0.750000000 0.200000000 0.400000000 0 0.857142857 0 0 0.500000000 1 0 0.446808511 0 1
 0 0 0 1 1 0 0 0 1 1 0 0.332512315 0.015151515 0 0.155555556 0 0 1 0 0 1 0 0 0 0 0 0 0 0 0 0 0.250000000 0 0 0.333333333 0.500000000 0 0.200000000 0 0.142857143 0 0 0.166666667 1 0 0.765957447 0 1
 0 0 0 1 1 0 0 1 0 1 0 0.032019704 0.159090909 0 0.019444444 0 1 0 0 1 0 0 0 0 0 0 0 0 0 0.250000000 1 0.500000000 0.666666667 0 0 0.500000000 0.400000000 0 0 0.285714286 0 0 0 1 0 0.319148936 0 1
 0 0 0 1 1 0 0 1 0 1 0 0.019704433 0.049242424 0 0.058333333 0 0 1 0 1 0 0 0 0.250000000 0 0 0 0 0 0 0 0 0 0 0 0.500000000 0.800000000 0 0 0 0 0 0.166666667 1 0 0.382978723 0 1
 0 0 0 1 1 0 0 1 1 0 0 0.100985222 0.022727273 0 0.066666667 0 1 0 0 1 0 0 0 0.500000000 0 0 0 0 0 0 0 0.250000000 0 0 0.333333333 0 0 0.200000000 0 0.142857143 0 0 0.333333333 1 0 0.510638298 0 1
 0 0.822012890 0.500000000 1 0 1 0 1 0 1 0 0.027093596 0.318181818 0 0.200000000 0 1 0 0 1 0 0 0 0 0 0 0 0 0 0 0 0 0 0 0 0.500000000 0 0 0 0.142857143 0 0 0.166666667 1 0 0.106382979 0 1
 0 0 0 1 1 0 0 1 1 0 0 0.293103448 0 0 0.133333333 0 1 0 0 1 0 0 0 0.750000000 0 0 0 0 0 0.250000000 1 0.750000000 0.666666667 0.333333333 0 0.750000000 0.800000000 0 0 0.428571429 0 0 1 1 0 0.276595745 0 1
 0 0 0 1 0 1 0 1 0 0 1 0.086206897 0 0 0.066666667 0 1 0 0 1 0 0 0 0 0 0 0 0 0 0.250000000 0.500000000 0.750000000 0.333333333 1 0 0.250000000 0.600000000 0 0 0.571428571 0 0 0.166666667 1 0 0.319148936 0 1
 0 0 0 1 1 0 0 1 1 0 0 0.209359606 0.007575758 0 0.983333333 0 1 0 0 1 0 0 0 0 0 0 0 0 0 0 0 0 0 0.333333333 0.666666667 0 0.200000000 0.400000000 0 0.571428571 0 0 0.666666667 1 0 0.702127660 0 1
 0 0 0 1 1 0 0 1 0 1 0 0.130541872 0.022727273 0 0 0 1 0 0 1 0 0 0 0.500000000 0 0 0 0 0 0 0 0 0 0 0 0 0 0 0 0 0 0 0.666666667 1 0 0.212765957 0 1
 0 0 0 1 1 0 0 0 1 1 0 0.012315271 0.022727273 0 0.100000000 0 1 0 0 1 0 0 0 0.250000000 0 0 0 0 0 0 0 0 0 0 0 0.250000000 0.200000000 0 0 0.142857143 0 0 0.166666667 1 0 0.021276596 0 1
 0 0 0 1 0 1 0 0 1 1 0 0.088669951 0.003787879 0 0.100000000 0 1 0 0 1 0 0 0 0 0 0 0 0 0 0 0 0.250000000 0 0.666666667 0 0 1 0.200000000 0 0.285714286 0 0 0.166666667 1 0 0.042553191 0 1
 0 0 0.500000000 1 0 0 1 1 1 0 0 0.243842365 0 0.777777778 0.111111111 0.656862745 1 0 0 1 0 0 0.500000000 0 1 1 1 1 1 0 0 0.500000000 0 0 0.666666667 0 0 0.400000000 0 0.285714286 0 0 0.333333333 1 1 0.787234043 0 1
 0 0 0 1 0 0 1 1 0 1 0 0.064039409 0.037878788 0.833333333 0.100000000 1 0 1 0 0 1 0 0.500000000 0 1 1 1 1 1 0 0 0 0 0 0 0 0.200000000 0 0 0 0 0 0.333333333 1 1 0.638297872 0 1
 0 0 0 1 1 0 0 1 0 0 1 0.440886700 0 0 0.050000000 0 0 1 0 1 0 0 0 0 0 0 0 0 0 0 0 0.500000000 0.333333333 0.333333333 0.333333333 0.250000000 0.200000000 0.200000000 0 0.428571429 0 0 0.666666667 1 0 0.680851064 0 1
 0 0 0 1 1 0 0 1 0 1 0 0.263546798 0 0.611111111 0.100000000 0 1 0 0 1 0 0 0.500000000 0 0 0 1 0 0 0 0 0 0 0 0 0 0 0 0 0 0 0 0.333333333 1 1 0.106382979 0 1
 0 0 0 1 1 0 0 1 1 0 0 0.059113300 0.276515152 0 0.344444444 0 1 0 0 1 0 0 0 0.500000000 0 0 0 0 0 0 0.500000000 0.500000000 0.333333333 0.333333333 0 0.500000000 0.200000000 0 0 0.285714286 0 0 0.500000000 1 0 0.404255319 0 1
 0 0 0 1 0 1 0 1 1 0 0 0.411330049 0 0 0.172222222 0 0 1 0 1 0 0 0 0 0 0 0 0 0 0 0 0 0 0 0 0 0 0 0 0 0 0 0.333333333 1 0 0.659574468 0 1
 0 0 0 0 1 1 0 1 1 0 0 0.024630542 0.772727273 0 0.511111111 0 0 1 0 0 1 0 0 0 0 0 0 0 0 0 0 0 0 0 0 0 0 0.200000000 0 0 0 0 0.166666667 1 0 0.680851064 0 1
 0 0 0 1 1 0 0 1 0 1 0 0.145320197 0 0 0.066666667 0 1 0 0 1 0 0 0 0.750000000 0 0 0 0 0 0 0 0 0 0 0 0 0 0 0 0 0 0 0.333333333 1 0 0.255319149 0 1
 0 0 0 1 0 1 0 1 1 0 0 0.179802956 0.007575758 0 0.033333333 0 1 0 0 1 0 0 0 0 0 0 0 0 0 0 0 0.500000000 0 0 0.666666667 0 0 0.400000000 0 0.285714286 0 0 0.333333333 1 0 0.319148936 0 1
 0 0 0 1 1 0 0 1 1 0 0 0.145320197 0 0 0.266666667 0 0 1 0 1 0 0 0 0.750000000 0 0 0 0 0 0 0 0 0 0 0 0 0 0.600000000 0 0 0 0 0 1 0 0.531914894 0 1
 0 0 0 1 1 0 0 1 0 0 1 0 0.189393939 0 0 0 1 0 0 1 0 0 0 0 0 0 0 0 0 0.250000000 0.500000000 0.500000000 0.333333333 0 0.666666667 0.500000000 0.200000000 0.800000000 0 0.428571429 0 0 0.500000000 1 0 0.787234043 0 1
 0 0 0 1 0 0 1 1 0 1 0 0.440886700 0 0.611111111 0.166666667 1 1 0 0 1 0 0 0 0.500000000 0 0 0 0 0 0 0 0 0 0 0 0 0 0 0 0 0 0 0.333333333 1 1 0.638297872 0 1
 0 0 0 1 0 1 0 1 0 1 0 0.056650246 0.045454545 0 0.233333333 0 1 0 0 1 0 0 0 0 0 0 0 0 0 0 0 0 0 0 0 0 0 0 0 0 0 0 0.500000000 1 0 0.680851064 0 1
 0 0 0.500000000 1 1 0 0 0 1 1 0 0.884236453 0 0 0.025000000 0 1 0 0 1 0 0 0 0.250000000 0 0 0 0 0 0 0 0 0 0 0 0 0.200000000 0 0 0 0 0 0.166666667 1 0 0.319148936 0 1
 0 0 0 0 1 1 0 1 0 0 1 0.263546798 0 0 0 0 1 0 0 1 0 0 0 0 0 0 0 0 0 0 0 0 0 0 0 0 0 0 0 0 0 0 0.500000000 1 0 0.765957447 0 1
 0 0 0 1 1 0 0 1 0 1 0 0.056650246 0.909090909 0 0.066666667 0 1 0 0 1 0 0 0 0 0 0 0 0 0 0 0 0 0 0 0 0.250000000 0 0 0 0 0 0 0.166666667 0 0 0.361702128 0 1
 0 0 0 1 0 0 1 1 0 1 0 0.110837438 0.318181818 0.833333333 0.166666667 0.117647059 1 0 0 1 0 0 0.500000000 0.250000000 1 1 1 1 1 0 0 0.250000000 0.333333333 0 0 0.250000000 1 0.200000000 0 0.428571429 0 0 0.666666667 1 1 0.638297872 0 1
 0 0.575111552 0.500000000 1 1 0 0 1 1 0 0 0.086206897 0 0 0 0 1 0 0 1 0 0 0 0.750000000 0 0 0 0 0 0 0 0 0 0 0 0 0 0.200000000 0 0 0 0 0.333333333 1 0 0.595744681 0 1
 0 0.249876054 0.500000000 1 0 0 1 1 0 1 0 0.086206897 0 0 0.200000000 0 1 0 0 1 0 0 0 0 0 0 0 0 0 0 0 0 0 0 0 0 0 0 0 0 0 0 0.500000000 1 0 0.446808511 0 1
 0 0 0 1 0 1 0 1 0 1 0 0.019704433 0.045454545 0 0.066666667 0 1 0 0 1 0 0 0 0 0 0 0 0 0 0 0 0.250000000 0.333333333 0 0 0.250000000 0 0 0 0.285714286 0 0 0.166666667 1 0 0.170212766 0 1
 0 0 0 1 1 0 0 1 1 0 0 0.204433498 0 0 0.050000000 0 1 0 0 1 0 0 0 0 0 0 0 0 0 0 0 0 0 0 0 0.250000000 0 0.200000000 0 0 0 0 0.166666667 1 0 0.361702128 0 1
 0 0 0 0 1 1 0 1 1 0 0 0.413793103 0.003787879 0 0.502777778 0 1 0 0 1 0 0 0 0 0 0 0 0 0 0 0 0 0 0 0 0 0 0 0 0 0 0 0.500000000 1 0 0.702127660 0 1
 0 0 0 1 1 0 0 1 1 0 0 0.529556650 0 0 0.433333333 0 1 0 0 1 0 0 0 0 0 0 0 0 0 0 0 0 0 0 0 0 0 0 0 0 0 0 0.500000000 1 0 0.765957447 0 1
 0 0 0 1 0 0 1 1 1 0 0 0.588669951 0 0.833333333 0.666666667 0 0 1 0 1 0 0 1 0.500000000 1 1 1 1 1 0 0 0 0 0 0 0 0 0 0 0 0 0 0.166666667 1 1 0.510638298 0 1
 0 0 0 1 1 0 0 1 1 0 0 0 0.681818182 0 0.766666667 0 1 0 0 0 1 0 0 0.750000000 0 0 0 0 0 0 0 0 0 0 0 0 0 0.200000000 0 0 0 0 0.333333333 1 0 0.531914894 0 1
 0 0 0 1 0 1 0 1 0 1 0 0.012315271 0.045454545 0 0.083333333 0 1 0 0 0 1 0 0 0 0 0 0 0 0 0 0.500000000 0.500000000 0 1 0.333333333 0 0.800000000 0.200000000 0 0.714285714 0 0 0.333333333 1 0 0.191489362 0 1
 0 0 0 1 1 0 0 1 0 0 1 0.086206897 0 0 0.266666667 0 1 0 0 1 0 0 0 0.250000000 0 0 0 0 0 0 0 0 0 0.333333333 0 0 0.200000000 0.200000000 0 0.142857143 0 0 0.333333333 1 0 0.297872340 0 1
 0 0 1 1 1 0 0 1 0 0 1 0.174876847 0 0 0.500000000 0 0 1 0 1 0 0 0 0.750000000 0 0 0 0 0 0 0 0 0 0 0 0 0 0 0 0 0 0 0.500000000 1 0 0.404255319 0 1
 0 0 0 1 0 1 0 1 0 1 0 0.041871921 0.045454545 0 0.050000000 0 0 1 0 1 0 0 0 0 0 0 0 0 0 0 0 0 0.666666667 0 0 0.500000000 0.200000000 0 0 0.285714286 0 0 0.333333333 1 0 0.148936170 0 1
 0 0 0 1 0 1 0 1 1 0 0 0.024630542 0.053030303 0 0.122222222 0 1 0 0 1 0 0 0 0 0 0 0 0 0 0 0 0 0 0 0 0.500000000 0 0 0 0 0 0 0.333333333 1 0 0.212765957 0 1
 0 0.000495786 0.500000000 0 1 1 0 1 1 0 0 0.766009852 0 0 0.133333333 0 0 1 0 1 0 0 0 0 0 0 0 0 0 0 0 0 0 0 0 0 0 0 0 0 0 0 0.500000000 1 0 0.744680851 0 1
 0 0 0 1 1 0 0 1 1 0 0 0.440886700 0 0 0.183333333 0 1 0 0 1 0 0 0 0 0 0 0 0 0 0 0 0 0 0 0 0.250000000 0 0.200000000 0 0 0 0 0.333333333 1 0 0.489361702 0 1
 0 0 0 1 1 0 0 1 0 0 1 0.027093596 0.045454545 0 0.247222222 0 1 0 0 1 0 0 0 0.750000000 0 0 0 0 0 0 0 0.250000000 0 0.333333333 0 0 0.200000000 0 0 0.142857143 0 0 0.500000000 1 0 0.531914894 0 1
 0 0 0 1 1 0 0 1 1 0 0 0.130541872 0.022727273 0 0.133333333 0 1 0 0 1 0 0 0 0 0 0 0 0 0 0 0 0 0 0 0 0 0 0 0 0 0 0 0.833333333 1 0 0.170212766 0 1
 0 0 0 1 1 0 0 1 0 1 0 0.115763547 0 0 0.133333333 0 1 0 0 1 0 0 0 0.250000000 0 0 0 0 0 0 0 0 0 0 0 0 0 0 0 0 0 0 0.166666667 1 0 0.319148936 0 1
 0 0 0 1 1 0 0 1 0 0 1 1 0 0 0.016666667 0 0 1 0 1 0 0 0 0 0 0 0 0 0 0 0 0 0 0 0 0 0 0.200000000 0 0 0 0 1 1 0 0.829787234 0 1
 0 0 0 1 0 1 0 1 0 1 0 0 0.026515152 0 0.027777778 0 1 0 0 1 0 0 0 0 0 0 0 0 0 0 0 0.500000000 0 0 0.666666667 0.250000000 0 0.400000000 0 0.285714286 0 0 0.166666667 1 0 0.212765957 0 1
 0 0 0 1 0 1 0 1 0 0 1 0.027093596 0.409090909 0 0.200000000 0 0 1 0 1 0 0 0 0 0 0 0 0 0 0 0 0.500000000 0 0.666666667 0 0 0.400000000 0 0 0.428571429 0 0 0.166666667 1 0 0.404255319 0 1
